# Blender v2.81 (sub 16) OBJ File: ''
# www.blender.org
o Sphere_Sphere.007
v 0.000000 0.955573 -0.294755
v 0.000000 0.900969 -0.433884
v 0.000000 0.826239 -0.563320
v 0.000000 0.733052 -0.680173
v 0.000000 0.623490 -0.781832
v 0.000000 0.500000 -0.866025
v 0.000000 0.365341 -0.930874
v 0.000000 0.222521 -0.974928
v 0.000000 0.074730 -0.997204
v 0.000000 -0.074730 -0.997204
v 0.000000 -0.222521 -0.974928
v 0.000000 -0.365341 -0.930874
v 0.000000 -0.500000 -0.866025
v 0.000000 -0.623490 -0.781832
v 0.000000 -0.733052 -0.680173
v 0.000000 -0.826239 -0.563320
v 0.000000 -0.900969 -0.433884
v 0.000000 -0.955573 -0.294756
v 0.000000 -0.988831 -0.149043
v 0.037065 0.988831 -0.144360
v 0.073302 0.955573 -0.285495
v 0.107902 0.900969 -0.420253
v 0.140092 0.826239 -0.545622
v 0.169152 0.733052 -0.658804
v 0.194433 0.623490 -0.757269
v 0.215372 0.500000 -0.838818
v 0.231499 0.365341 -0.901629
v 0.242455 0.222521 -0.944299
v 0.247994 0.074730 -0.965875
v 0.247994 -0.074730 -0.965875
v 0.242455 -0.222521 -0.944299
v 0.231499 -0.365341 -0.901629
v 0.215372 -0.500000 -0.838818
v 0.194433 -0.623490 -0.757269
v 0.169152 -0.733052 -0.658804
v 0.140092 -0.826239 -0.545623
v 0.107902 -0.900969 -0.420253
v 0.073303 -0.955573 -0.285495
v 0.037065 -0.988831 -0.144360
v 0.071801 0.988831 -0.130607
v 0.141999 0.955573 -0.258296
v 0.209025 0.900969 -0.380215
v 0.271381 0.826239 -0.493641
v 0.327675 0.733052 -0.596040
v 0.376650 0.623490 -0.685124
v 0.417211 0.500000 -0.758904
v 0.448452 0.365341 -0.815731
v 0.469675 0.222521 -0.854336
v 0.480406 0.074730 -0.873856
v 0.480406 -0.074730 -0.873856
v 0.469675 -0.222521 -0.854336
v 0.448452 -0.365341 -0.815731
v 0.417211 -0.500000 -0.758904
v 0.376650 -0.623490 -0.685124
v 0.327676 -0.733052 -0.596040
v 0.271381 -0.826239 -0.493641
v 0.209025 -0.900969 -0.380216
v 0.141999 -0.955573 -0.258296
v 0.071802 -0.988831 -0.130607
v 0.102026 0.988831 -0.108647
v 0.201773 0.955573 -0.214867
v 0.297013 0.900969 -0.316288
v 0.385619 0.826239 -0.410643
v 0.465610 0.733052 -0.495825
v 0.535200 0.623490 -0.569931
v 0.592835 0.500000 -0.631306
v 0.637227 0.365341 -0.678578
v 0.667384 0.222521 -0.710692
v 0.682633 0.074730 -0.726930
v 0.682633 -0.074730 -0.726930
v 0.667384 -0.222521 -0.710692
v 0.637227 -0.365341 -0.678578
v 0.592835 -0.500000 -0.631305
v 0.535200 -0.623490 -0.569931
v 0.465610 -0.733052 -0.495825
v 0.385619 -0.826239 -0.410643
v 0.297014 -0.900969 -0.316288
v 0.201774 -0.955573 -0.214868
v 0.102026 -0.988831 -0.108648
v -0.000001 1.000000 -0.000000
v 0.125840 0.988831 -0.079861
v 0.248870 0.955573 -0.157938
v 0.366340 0.900969 -0.232487
v 0.475626 0.826239 -0.301842
v 0.574288 0.733052 -0.364455
v 0.660122 0.623490 -0.418927
v 0.731209 0.500000 -0.464040
v 0.785962 0.365341 -0.498787
v 0.823158 0.222521 -0.522393
v 0.841967 0.074730 -0.534329
v 0.841966 -0.074730 -0.534329
v 0.823158 -0.222521 -0.522393
v 0.785962 -0.365341 -0.498787
v 0.731209 -0.500000 -0.464040
v 0.660122 -0.623490 -0.418927
v 0.574288 -0.733052 -0.364455
v 0.475627 -0.826239 -0.301842
v 0.366340 -0.900969 -0.232487
v 0.248870 -0.955573 -0.157938
v 0.125840 -0.988831 -0.079861
v 0.141747 0.988831 -0.046057
v 0.280328 0.955573 -0.091085
v 0.412647 0.900969 -0.134078
v 0.535749 0.826239 -0.174076
v 0.646882 0.733052 -0.210185
v 0.743565 0.623490 -0.241600
v 0.823638 0.500000 -0.267617
v 0.885313 0.365341 -0.287656
v 0.927211 0.222521 -0.301270
v 0.948397 0.074730 -0.308153
v 0.948396 -0.074730 -0.308153
v 0.927211 -0.222521 -0.301270
v 0.885313 -0.365341 -0.287656
v 0.823638 -0.500000 -0.267617
v 0.743565 -0.623490 -0.241600
v 0.646882 -0.733052 -0.210185
v 0.535749 -0.826239 -0.174076
v 0.412648 -0.900969 -0.134078
v 0.280329 -0.955573 -0.091085
v 0.141748 -0.988831 -0.046057
v 0.148748 0.988831 -0.009359
v 0.294173 0.955573 -0.018508
v 0.433027 0.900969 -0.027244
v 0.562208 0.826239 -0.035372
v 0.678830 0.733052 -0.042709
v 0.780288 0.623490 -0.049092
v 0.864316 0.500000 -0.054379
v 0.929036 0.365341 -0.058451
v 0.973003 0.222521 -0.061217
v 0.995235 0.074730 -0.062615
v 0.995235 -0.074730 -0.062615
v 0.973003 -0.222521 -0.061217
v 0.929036 -0.365341 -0.058450
v 0.864316 -0.500000 -0.054379
v 0.780288 -0.623490 -0.049092
v 0.678830 -0.733052 -0.042709
v 0.562208 -0.826239 -0.035372
v 0.433027 -0.900969 -0.027244
v 0.294173 -0.955573 -0.018508
v 0.148748 -0.988831 -0.009359
v 0.146402 0.988831 0.027927
v 0.289534 0.955573 0.055231
v 0.426198 0.900969 0.081301
v 0.553342 0.826239 0.105555
v 0.668124 0.733052 0.127451
v 0.767982 0.623490 0.146500
v 0.850685 0.500000 0.162276
v 0.914385 0.365341 0.174428
v 0.957659 0.222521 0.182683
v 0.979540 0.074730 0.186857
v 0.979540 -0.074730 0.186857
v 0.957659 -0.222521 0.182683
v 0.914385 -0.365341 0.174428
v 0.850685 -0.500000 0.162276
v 0.767982 -0.623490 0.146500
v 0.668124 -0.733052 0.127451
v 0.553342 -0.826239 0.105555
v 0.426198 -0.900969 0.081301
v 0.289534 -0.955573 0.055231
v 0.146402 -0.988831 0.027927
v 0.134857 0.988831 0.063458
v 0.266702 0.955573 0.125500
v 0.392589 0.900969 0.184738
v 0.509707 0.826239 0.239849
v 0.615438 0.733052 0.289603
v 0.707422 0.623490 0.332887
v 0.783603 0.500000 0.368735
v 0.842279 0.365341 0.396346
v 0.882141 0.222521 0.415103
v 0.902296 0.074730 0.424588
v 0.902296 -0.074730 0.424588
v 0.882141 -0.222521 0.415103
v 0.842279 -0.365341 0.396346
v 0.783603 -0.500000 0.368735
v 0.707422 -0.623490 0.332887
v 0.615438 -0.733052 0.289603
v 0.509707 -0.826239 0.239849
v 0.392590 -0.900969 0.184738
v 0.266702 -0.955573 0.125500
v 0.134857 -0.988831 0.063458
v 0.114839 0.988831 0.095002
v 0.227112 0.955573 0.187883
v 0.334313 0.900969 0.276567
v 0.434045 0.826239 0.359073
v 0.524082 0.733052 0.433557
v 0.602411 0.623490 0.498357
v 0.667283 0.500000 0.552024
v 0.717250 0.365341 0.593360
v 0.751194 0.222521 0.621442
v 0.768358 0.074730 0.635641
v 0.768358 -0.074730 0.635641
v 0.751194 -0.222521 0.621442
v 0.717250 -0.365341 0.593360
v 0.667283 -0.500000 0.552024
v 0.602411 -0.623490 0.498357
v 0.524082 -0.733052 0.433557
v 0.434045 -0.826239 0.359073
v 0.334313 -0.900969 0.276567
v 0.227113 -0.955573 0.187883
v 0.114839 -0.988831 0.095002
v 0.087604 0.988831 0.120577
v 0.173252 0.955573 0.238461
v 0.255030 0.900969 0.351018
v 0.331111 0.826239 0.455734
v 0.399795 0.733052 0.550270
v 0.459549 0.623490 0.632514
v 0.509036 0.500000 0.700628
v 0.547153 0.365341 0.753092
v 0.573048 0.222521 0.788732
v 0.586141 0.074730 0.806754
v 0.586141 -0.074730 0.806754
v 0.573048 -0.222521 0.788732
v 0.547153 -0.365341 0.753092
v 0.509036 -0.500000 0.700628
v 0.459549 -0.623490 0.632514
v 0.399795 -0.733052 0.550270
v 0.331111 -0.826239 0.455735
v 0.255030 -0.900969 0.351019
v 0.173253 -0.955573 0.238461
v 0.087605 -0.988831 0.120577
v 0.054866 0.988831 0.138575
v 0.108506 0.955573 0.274055
v 0.159723 0.900969 0.403414
v 0.207372 0.826239 0.523761
v 0.250388 0.733052 0.632407
v 0.287811 0.623490 0.726927
v 0.318805 0.500000 0.805209
v 0.342677 0.365341 0.865503
v 0.358894 0.222521 0.906464
v 0.367095 0.074730 0.927176
v 0.367095 -0.074730 0.927175
v 0.358894 -0.222521 0.906464
v 0.342677 -0.365341 0.865503
v 0.318805 -0.500000 0.805209
v 0.287811 -0.623490 0.726927
v 0.250388 -0.733052 0.632408
v 0.207372 -0.826239 0.523761
v 0.159723 -0.900969 0.403414
v 0.108507 -0.955573 0.274056
v 0.054866 -0.988831 0.138575
v 0.018680 0.988831 0.147866
v 0.036942 0.955573 0.292430
v 0.054380 0.900969 0.430461
v 0.070603 0.826239 0.558877
v 0.085248 0.733052 0.674808
v 0.097989 0.623490 0.775665
v 0.108542 0.500000 0.859195
v 0.116669 0.365341 0.923532
v 0.122191 0.222521 0.967239
v 0.124982 0.074730 0.989339
v 0.124982 -0.074730 0.989339
v 0.122191 -0.222521 0.967239
v 0.116669 -0.365341 0.923532
v 0.108541 -0.500000 0.859195
v 0.097989 -0.623490 0.775665
v 0.085248 -0.733052 0.674808
v 0.070603 -0.826239 0.558877
v 0.054380 -0.900969 0.430462
v 0.036943 -0.955573 0.292430
v 0.018680 -0.988831 0.147866
v -0.018680 0.988831 0.147866
v -0.036943 0.955573 0.292430
v -0.054380 0.900969 0.430461
v -0.070603 0.826239 0.558877
v -0.085248 0.733052 0.674808
v -0.097989 0.623490 0.775665
v -0.108542 0.500000 0.859195
v -0.116670 0.365341 0.923532
v -0.122191 0.222521 0.967239
v -0.124983 0.074730 0.989339
v -0.124983 -0.074730 0.989339
v -0.122191 -0.222521 0.967239
v -0.116670 -0.365341 0.923532
v -0.108542 -0.500000 0.859195
v -0.097989 -0.623490 0.775665
v -0.085248 -0.733052 0.674808
v -0.070603 -0.826239 0.558877
v -0.054380 -0.900969 0.430462
v -0.036943 -0.955573 0.292430
v -0.018680 -0.988831 0.147866
v -0.054866 0.988831 0.138575
v -0.108506 0.955573 0.274055
v -0.159723 0.900969 0.403414
v -0.207372 0.826239 0.523761
v -0.250388 0.733052 0.632407
v -0.287811 0.623490 0.726927
v -0.318805 0.500000 0.805209
v -0.342677 0.365341 0.865503
v -0.358895 0.222521 0.906464
v -0.367095 0.074730 0.927175
v -0.367095 -0.074730 0.927175
v -0.358895 -0.222521 0.906464
v -0.342678 -0.365341 0.865503
v -0.318805 -0.500000 0.805209
v -0.287811 -0.623490 0.726927
v -0.250388 -0.733052 0.632407
v -0.207372 -0.826239 0.523761
v -0.159723 -0.900969 0.403414
v -0.108507 -0.955573 0.274056
v -0.054866 -0.988831 0.138575
v -0.087605 0.988831 0.120577
v -0.173252 0.955573 0.238461
v -0.255030 0.900969 0.351018
v -0.331111 0.826239 0.455734
v -0.399795 0.733052 0.550270
v -0.459549 0.623490 0.632514
v -0.509037 0.500000 0.700628
v -0.547154 0.365341 0.753091
v -0.573048 0.222521 0.788732
v -0.586142 0.074730 0.806754
v -0.586142 -0.074730 0.806753
v -0.573048 -0.222521 0.788732
v -0.547154 -0.365341 0.753091
v -0.509037 -0.500000 0.700628
v -0.459549 -0.623490 0.632514
v -0.399795 -0.733052 0.550270
v -0.331111 -0.826239 0.455735
v -0.255030 -0.900969 0.351018
v -0.173253 -0.955573 0.238461
v -0.087605 -0.988831 0.120577
v -0.114839 0.988831 0.095002
v -0.227112 0.955573 0.187883
v -0.334313 0.900969 0.276567
v -0.434045 0.826239 0.359073
v -0.524082 0.733052 0.433557
v -0.602411 0.623490 0.498357
v -0.667284 0.500000 0.552024
v -0.717250 0.365341 0.593360
v -0.751195 0.222521 0.621441
v -0.768359 0.074730 0.635640
v -0.768358 -0.074730 0.635640
v -0.751195 -0.222521 0.621441
v -0.717250 -0.365341 0.593360
v -0.667284 -0.500000 0.552024
v -0.602411 -0.623490 0.498357
v -0.524082 -0.733052 0.433557
v -0.434045 -0.826239 0.359073
v -0.334313 -0.900969 0.276567
v -0.227113 -0.955573 0.187883
v -0.114839 -0.988831 0.095002
v -0.134857 0.988831 0.063458
v -0.266702 0.955573 0.125500
v -0.392589 0.900969 0.184738
v -0.509707 0.826239 0.239849
v -0.615438 0.733052 0.289602
v -0.707422 0.623490 0.332887
v -0.783603 0.500000 0.368735
v -0.842279 0.365341 0.396346
v -0.882141 0.222521 0.415103
v -0.902297 0.074730 0.424588
v -0.902296 -0.074730 0.424587
v -0.882141 -0.222521 0.415103
v -0.842279 -0.365341 0.396346
v -0.783603 -0.500000 0.368735
v -0.707422 -0.623490 0.332887
v -0.615438 -0.733052 0.289602
v -0.509707 -0.826239 0.239849
v -0.392590 -0.900969 0.184738
v -0.266702 -0.955573 0.125500
v -0.134857 -0.988831 0.063458
v -0.146402 0.988831 0.027927
v -0.289534 0.955573 0.055231
v -0.426198 0.900969 0.081301
v -0.553342 0.826239 0.105555
v -0.668124 0.733052 0.127451
v -0.767983 0.623490 0.146500
v -0.850685 0.500000 0.162276
v -0.914385 0.365341 0.174427
v -0.957659 0.222521 0.182682
v -0.979540 0.074730 0.186856
v -0.979540 -0.074730 0.186856
v -0.957659 -0.222521 0.182682
v -0.914385 -0.365341 0.174427
v -0.850685 -0.500000 0.162276
v -0.767983 -0.623490 0.146500
v -0.668125 -0.733052 0.127451
v -0.553342 -0.826239 0.105555
v -0.426198 -0.900969 0.081301
v -0.289534 -0.955573 0.055231
v -0.146402 -0.988831 0.027927
v -0.148748 0.988831 -0.009359
v -0.294173 0.955573 -0.018508
v -0.433027 0.900969 -0.027244
v -0.562208 0.826239 -0.035372
v -0.678830 0.733052 -0.042709
v -0.780288 0.623490 -0.049092
v -0.864316 0.500000 -0.054379
v -0.929036 0.365341 -0.058451
v -0.973004 0.222521 -0.061217
v -0.995236 0.074730 -0.062616
v -0.995235 -0.074730 -0.062616
v -0.973004 -0.222521 -0.061217
v -0.929036 -0.365341 -0.058451
v -0.864316 -0.500000 -0.054379
v -0.780288 -0.623490 -0.049092
v -0.678830 -0.733052 -0.042709
v -0.562208 -0.826239 -0.035372
v -0.433027 -0.900969 -0.027245
v -0.294173 -0.955573 -0.018509
v -0.148748 -0.988831 -0.009359
v -0.141747 0.988831 -0.046057
v -0.280328 0.955573 -0.091085
v -0.412647 0.900969 -0.134078
v -0.535749 0.826239 -0.174076
v -0.646882 0.733052 -0.210186
v -0.743565 0.623490 -0.241600
v -0.823639 0.500000 -0.267617
v -0.885313 0.365341 -0.287657
v -0.927211 0.222521 -0.301270
v -0.948397 0.074730 -0.308154
v -0.948396 -0.074730 -0.308154
v -0.927211 -0.222521 -0.301270
v -0.885313 -0.365341 -0.287657
v -0.823639 -0.500000 -0.267617
v -0.743565 -0.623490 -0.241600
v -0.646882 -0.733052 -0.210186
v -0.535749 -0.826239 -0.174076
v -0.412648 -0.900969 -0.134078
v -0.280329 -0.955573 -0.091085
v -0.141748 -0.988831 -0.046057
v -0.125840 0.988831 -0.079861
v -0.248869 0.955573 -0.157938
v -0.366340 0.900969 -0.232487
v -0.475626 0.826239 -0.301842
v -0.574288 0.733052 -0.364455
v -0.660122 0.623490 -0.418927
v -0.731209 0.500000 -0.464040
v -0.785962 0.365341 -0.498788
v -0.823158 0.222521 -0.522393
v -0.841966 0.074730 -0.534329
v -0.841966 -0.074730 -0.534329
v -0.823158 -0.222521 -0.522393
v -0.785962 -0.365341 -0.498788
v -0.731209 -0.500000 -0.464040
v -0.660122 -0.623490 -0.418927
v -0.574288 -0.733052 -0.364455
v -0.475627 -0.826239 -0.301843
v -0.366340 -0.900969 -0.232487
v -0.248870 -0.955573 -0.157938
v -0.125840 -0.988831 -0.079861
v -0.102026 0.988831 -0.108647
v -0.201773 0.955573 -0.214868
v -0.297013 0.900969 -0.316288
v -0.385619 0.826239 -0.410643
v -0.465610 0.733052 -0.495825
v -0.535200 0.623490 -0.569931
v -0.592835 0.500000 -0.631306
v -0.637227 0.365341 -0.678578
v -0.667384 0.222521 -0.710692
v -0.682632 0.074730 -0.726931
v -0.682632 -0.074730 -0.726931
v -0.667384 -0.222521 -0.710692
v -0.637226 -0.365341 -0.678578
v -0.592835 -0.500000 -0.631306
v -0.535200 -0.623490 -0.569931
v -0.465610 -0.733052 -0.495825
v -0.385619 -0.826239 -0.410643
v -0.297014 -0.900969 -0.316288
v -0.201774 -0.955573 -0.214868
v -0.102026 -0.988831 -0.108648
v -0.071801 0.988831 -0.130607
v -0.141999 0.955573 -0.258296
v -0.209025 0.900969 -0.380215
v -0.271381 0.826239 -0.493642
v -0.327675 0.733052 -0.596040
v -0.376650 0.623490 -0.685124
v -0.417210 0.500000 -0.758904
v -0.448451 0.365341 -0.815731
v -0.469675 0.222521 -0.854336
v -0.480406 0.074730 -0.873857
v -0.480406 -0.074730 -0.873857
v -0.469675 -0.222521 -0.854336
v -0.448451 -0.365341 -0.815731
v -0.417210 -0.500000 -0.758904
v -0.376650 -0.623490 -0.685124
v -0.327675 -0.733052 -0.596040
v -0.271381 -0.826239 -0.493642
v -0.209025 -0.900969 -0.380216
v -0.141999 -0.955573 -0.258297
v -0.071802 -0.988831 -0.130607
v -0.037065 0.988831 -0.144360
v -0.073302 0.955573 -0.285495
v -0.107902 0.900969 -0.420253
v -0.140092 0.826239 -0.545623
v -0.169152 0.733052 -0.658804
v -0.194433 0.623490 -0.757269
v -0.215371 0.500000 -0.838818
v -0.231498 0.365341 -0.901629
v -0.242454 0.222521 -0.944299
v -0.247994 0.074730 -0.965875
v -0.247994 -0.074730 -0.965875
v -0.242454 -0.222521 -0.944299
v -0.231498 -0.365341 -0.901629
v -0.215371 -0.500000 -0.838818
v -0.194433 -0.623490 -0.757269
v -0.169152 -0.733052 -0.658804
v -0.140092 -0.826239 -0.545623
v -0.107902 -0.900969 -0.420253
v -0.073302 -0.955573 -0.285495
v -0.037065 -0.988831 -0.144360
v 0.000000 0.988831 -0.149042
v 0.000000 -1.000000 -0.000001
vt 0.720001 0.666667
vt 0.680001 0.619048
vt 0.720001 0.619048
vt 0.720001 0.952381
vt 0.700001 1.000000
vt 0.680001 0.952381
vt 0.720001 0.238095
vt 0.680001 0.285714
vt 0.680001 0.238095
vt 0.680001 0.571429
vt 0.720001 0.571429
vt 0.680001 0.904762
vt 0.720001 0.904762
vt 0.680001 0.190476
vt 0.720001 0.190476
vt 0.680001 0.523810
vt 0.720001 0.523810
vt 0.680001 0.857143
vt 0.720001 0.857143
vt 0.720001 0.142857
vt 0.680001 0.142857
vt 0.680001 0.476190
vt 0.720001 0.476190
vt 0.680001 0.809524
vt 0.720001 0.809524
vt 0.680001 0.095238
vt 0.720001 0.095238
vt 0.680001 0.428571
vt 0.720001 0.428571
vt 0.680001 0.761905
vt 0.720001 0.761905
vt 0.680001 0.047619
vt 0.720001 0.047619
vt 0.680001 0.380952
vt 0.720001 0.380952
vt 0.680001 0.714286
vt 0.720001 0.714286
vt 0.700001 0.000000
vt 0.720001 0.333333
vt 0.680001 0.333333
vt 0.680001 0.666667
vt 0.720001 0.285714
vt 0.640001 0.619048
vt 0.640001 0.571429
vt 0.640001 0.904762
vt 0.640001 0.190476
vt 0.640001 0.523810
vt 0.640001 0.857143
vt 0.640001 0.142857
vt 0.640001 0.476190
vt 0.640001 0.809524
vt 0.640001 0.095238
vt 0.640001 0.428571
vt 0.640001 0.761905
vt 0.640001 0.047619
vt 0.640001 0.380952
vt 0.640001 0.714286
vt 0.660001 0.000000
vt 0.640001 0.333333
vt 0.640001 0.666667
vt 0.640001 0.285714
vt 0.660001 1.000000
vt 0.640001 0.952381
vt 0.640001 0.238095
vt 0.600001 0.857143
vt 0.600001 0.142857
vt 0.600001 0.476190
vt 0.600001 0.809524
vt 0.600001 0.095238
vt 0.600001 0.428571
vt 0.600001 0.761905
vt 0.600001 0.047619
vt 0.600001 0.380952
vt 0.600001 0.714286
vt 0.620001 0.000000
vt 0.600001 0.333333
vt 0.600001 0.666667
vt 0.600001 0.285714
vt 0.600001 0.619048
vt 0.620001 1.000000
vt 0.600001 0.952381
vt 0.600001 0.238095
vt 0.600001 0.571429
vt 0.600001 0.904762
vt 0.600001 0.190476
vt 0.600001 0.523810
vt 0.560001 0.476190
vt 0.560001 0.428571
vt 0.560001 0.809524
vt 0.560001 0.761905
vt 0.560001 0.047619
vt 0.560001 0.380952
vt 0.560001 0.714286
vt 0.580001 0.000000
vt 0.560001 0.333333
vt 0.560001 0.666667
vt 0.560001 0.285714
vt 0.560001 0.619048
vt 0.580001 1.000000
vt 0.560001 0.952381
vt 0.560001 0.238095
vt 0.560001 0.571429
vt 0.560001 0.904762
vt 0.560001 0.190476
vt 0.560001 0.523810
vt 0.560001 0.857143
vt 0.560001 0.142857
vt 0.560001 0.095238
vt 0.520001 0.714286
vt 0.540002 0.000000
vt 0.520001 0.047619
vt 0.520001 0.333333
vt 0.520001 0.666667
vt 0.520001 0.285714
vt 0.520001 0.619048
vt 0.540002 1.000000
vt 0.520001 0.952381
vt 0.520001 0.238095
vt 0.520001 0.571429
vt 0.520001 0.904762
vt 0.520001 0.190476
vt 0.520001 0.523810
vt 0.520001 0.857143
vt 0.520001 0.142857
vt 0.520001 0.476190
vt 0.520001 0.809524
vt 0.520001 0.095238
vt 0.520001 0.428571
vt 0.520001 0.761905
vt 0.520001 0.380952
vt 0.480001 0.285714
vt 0.480001 0.666667
vt 0.480001 0.619048
vt 0.500002 1.000000
vt 0.480001 0.952381
vt 0.480001 0.238095
vt 0.480001 0.571429
vt 0.480001 0.904762
vt 0.480001 0.190476
vt 0.480001 0.523810
vt 0.480001 0.857143
vt 0.480001 0.142857
vt 0.480001 0.476190
vt 0.480001 0.809524
vt 0.480001 0.095238
vt 0.480001 0.428571
vt 0.480001 0.761905
vt 0.480001 0.047619
vt 0.480001 0.380952
vt 0.480001 0.714286
vt 0.500002 0.000000
vt 0.480001 0.333333
vt 0.440001 0.285714
vt 0.440001 0.238095
vt 0.440001 0.571429
vt 0.440001 0.952381
vt 0.440001 0.904762
vt 0.440001 0.190476
vt 0.440001 0.523810
vt 0.440001 0.857143
vt 0.440001 0.142857
vt 0.440001 0.476190
vt 0.440001 0.809524
vt 0.440001 0.095238
vt 0.440001 0.428571
vt 0.440001 0.761905
vt 0.440001 0.047619
vt 0.440001 0.380952
vt 0.440001 0.714286
vt 0.460002 0.000000
vt 0.440001 0.333333
vt 0.440001 0.666667
vt 0.440001 0.619048
vt 0.460001 1.000000
vt 0.400001 0.571429
vt 0.400001 0.523810
vt 0.400001 0.857143
vt 0.400001 0.142857
vt 0.400001 0.476190
vt 0.400001 0.809524
vt 0.400001 0.095238
vt 0.400001 0.428571
vt 0.400001 0.761905
vt 0.400001 0.047619
vt 0.400001 0.380952
vt 0.400001 0.714286
vt 0.420002 0.000000
vt 0.400001 0.333333
vt 0.400001 0.666667
vt 0.400001 0.285714
vt 0.400001 0.619048
vt 0.420001 1.000000
vt 0.400001 0.952381
vt 0.400001 0.238095
vt 0.400001 0.904762
vt 0.400001 0.190476
vt 0.360001 0.857143
vt 0.360001 0.809524
vt 0.360001 0.095238
vt 0.360001 0.428571
vt 0.360001 0.761905
vt 0.360001 0.047619
vt 0.360001 0.380952
vt 0.360001 0.714286
vt 0.380002 0.000000
vt 0.360001 0.333333
vt 0.360001 0.666667
vt 0.360001 0.285714
vt 0.360001 0.619048
vt 0.380001 1.000000
vt 0.360001 0.952381
vt 0.360001 0.238095
vt 0.360001 0.571429
vt 0.360001 0.904762
vt 0.360001 0.190476
vt 0.360001 0.523810
vt 0.360001 0.142857
vt 0.360001 0.476190
vt 0.320001 0.428571
vt 0.320001 0.380952
vt 0.320001 0.714286
vt 0.340001 0.000000
vt 0.320001 0.047619
vt 0.320001 0.333333
vt 0.320001 0.666667
vt 0.320001 0.285714
vt 0.320001 0.619048
vt 0.340001 1.000000
vt 0.320001 0.952381
vt 0.320001 0.238095
vt 0.320001 0.571429
vt 0.320001 0.904762
vt 0.320001 0.190476
vt 0.320001 0.523810
vt 0.320001 0.857143
vt 0.320001 0.142857
vt 0.320001 0.476190
vt 0.320001 0.809524
vt 0.320001 0.095238
vt 0.320001 0.761905
vt 0.280001 0.714286
vt 0.280001 0.666667
vt 0.280001 0.285714
vt 0.280001 0.619048
vt 0.300001 1.000000
vt 0.280001 0.952381
vt 0.280001 0.238095
vt 0.280001 0.571429
vt 0.280001 0.904762
vt 0.280001 0.190476
vt 0.280001 0.523810
vt 0.280001 0.857143
vt 0.280001 0.142857
vt 0.280001 0.476190
vt 0.280001 0.809524
vt 0.280001 0.095238
vt 0.280001 0.428571
vt 0.280001 0.761905
vt 0.280001 0.047619
vt 0.280001 0.380952
vt 0.300001 0.000000
vt 0.280001 0.333333
vt 0.260001 1.000000
vt 0.240001 0.952381
vt 0.240001 0.285714
vt 0.240001 0.238095
vt 0.240001 0.619048
vt 0.240001 0.571429
vt 0.240001 0.904762
vt 0.240001 0.190476
vt 0.240001 0.523810
vt 0.240001 0.857143
vt 0.240001 0.142857
vt 0.240001 0.476190
vt 0.240001 0.809524
vt 0.240001 0.095238
vt 0.240001 0.428571
vt 0.240001 0.761905
vt 0.240001 0.047619
vt 0.240001 0.380952
vt 0.240001 0.714286
vt 0.260001 0.000000
vt 0.240001 0.333333
vt 0.240001 0.666667
vt 0.200001 0.238095
vt 0.200001 0.190476
vt 0.200001 0.571429
vt 0.200001 0.523810
vt 0.200001 0.857143
vt 0.200001 0.142857
vt 0.200001 0.476190
vt 0.200001 0.809524
vt 0.200001 0.095238
vt 0.200001 0.428571
vt 0.200001 0.761905
vt 0.200001 0.047619
vt 0.200001 0.380952
vt 0.200001 0.714286
vt 0.220001 0.000000
vt 0.200001 0.333333
vt 0.200001 0.666667
vt 0.200001 0.285714
vt 0.200001 0.619048
vt 0.220000 1.000000
vt 0.200001 0.952381
vt 0.200001 0.904762
vt 0.160001 0.476190
vt 0.160001 0.857143
vt 0.160001 0.809524
vt 0.160001 0.142857
vt 0.160001 0.095238
vt 0.160001 0.428571
vt 0.160001 0.761905
vt 0.160000 0.047619
vt 0.160001 0.380952
vt 0.160001 0.714286
vt 0.180000 0.000000
vt 0.160001 0.333333
vt 0.160001 0.666667
vt 0.160001 0.285714
vt 0.160001 0.619048
vt 0.180000 1.000000
vt 0.160000 0.952381
vt 0.160001 0.238095
vt 0.160001 0.571429
vt 0.160001 0.904762
vt 0.160001 0.190476
vt 0.160001 0.523810
vt 0.120001 0.809524
vt 0.120001 0.761905
vt 0.120000 0.047619
vt 0.120001 0.428571
vt 0.120001 0.380952
vt 0.120001 0.714286
vt 0.140000 0.000000
vt 0.120001 0.333333
vt 0.120001 0.666667
vt 0.120001 0.285714
vt 0.120001 0.619048
vt 0.140000 1.000000
vt 0.120000 0.952381
vt 0.120001 0.238095
vt 0.120001 0.571429
vt 0.120000 0.904762
vt 0.120001 0.190476
vt 0.120001 0.523810
vt 0.120001 0.857143
vt 0.120001 0.142857
vt 0.120001 0.476190
vt 0.120000 0.095238
vt 0.080001 0.333333
vt 0.080001 0.714286
vt 0.080001 0.666667
vt 0.080001 0.285714
vt 0.080001 0.619048
vt 0.100000 1.000000
vt 0.080000 0.952381
vt 0.080001 0.238095
vt 0.080001 0.571429
vt 0.080000 0.904762
vt 0.080001 0.190476
vt 0.080001 0.523810
vt 0.080001 0.857143
vt 0.080000 0.142857
vt 0.080001 0.476190
vt 0.080001 0.809524
vt 0.080000 0.095238
vt 0.080001 0.428571
vt 0.080001 0.761905
vt 0.080000 0.047619
vt 0.080001 0.380952
vt 0.100000 0.000000
vt 0.040001 0.666667
vt 0.040001 0.619048
vt 0.060000 1.000000
vt 0.040000 0.952381
vt 0.040001 0.285714
vt 0.040000 0.238095
vt 0.040001 0.571429
vt 0.040000 0.904762
vt 0.040000 0.190476
vt 0.040001 0.523810
vt 0.040000 0.857143
vt 0.040000 0.142857
vt 0.040001 0.476190
vt 0.040001 0.809524
vt 0.040000 0.095238
vt 0.040001 0.428571
vt 0.040001 0.761905
vt 0.040000 0.047619
vt 0.040001 0.380952
vt 0.040001 0.714286
vt 0.060000 0.000000
vt 0.040001 0.333333
vt 0.000000 0.904762
vt 0.000001 0.190476
vt 0.000001 0.571429
vt 0.000001 0.523810
vt 0.000001 0.857143
vt 0.000000 0.142857
vt 0.000001 0.476190
vt 0.000001 0.809524
vt 0.000000 0.095238
vt 0.000001 0.428571
vt 0.000001 0.761905
vt 0.000000 0.047619
vt 0.000001 0.380952
vt 0.000001 0.714286
vt 0.020000 0.000000
vt 0.000001 0.333333
vt 0.000001 0.666667
vt 0.000001 0.285714
vt 0.000001 0.619048
vt 0.020000 1.000000
vt 0.000000 0.952381
vt 0.000001 0.238095
vt 1.000000 0.190476
vt 0.960000 0.142857
vt 1.000000 0.142857
vt 1.000001 0.523810
vt 0.960001 0.476190
vt 1.000001 0.476190
vt 1.000001 0.809524
vt 0.960001 0.857143
vt 0.960001 0.809524
vt 0.960000 0.095238
vt 1.000000 0.095238
vt 0.960001 0.428571
vt 1.000001 0.428571
vt 1.000001 0.761905
vt 0.960001 0.761905
vt 1.000000 0.047619
vt 0.960000 0.047619
vt 1.000001 0.380952
vt 0.960001 0.380952
vt 0.960001 0.714286
vt 1.000001 0.714286
vt 0.980000 0.000000
vt 0.960001 0.333333
vt 1.000001 0.333333
vt 0.960001 0.666667
vt 1.000001 0.666667
vt 0.960001 0.285714
vt 1.000001 0.285714
vt 1.000001 0.619048
vt 0.960001 0.619048
vt 1.000000 0.952381
vt 0.980000 1.000000
vt 0.960000 0.952381
vt 1.000001 0.238095
vt 0.960001 0.238095
vt 1.000001 0.571429
vt 0.960001 0.571429
vt 0.960000 0.904762
vt 1.000000 0.904762
vt 0.960001 0.190476
vt 0.960001 0.523810
vt 1.000000 0.857143
vt 0.920001 0.428571
vt 0.920001 0.809524
vt 0.920001 0.761905
vt 0.920000 0.047619
vt 0.920001 0.380952
vt 0.920001 0.714286
vt 0.940000 0.000000
vt 0.920001 0.333333
vt 0.920001 0.666667
vt 0.920001 0.285714
vt 0.920001 0.619048
vt 0.940000 1.000000
vt 0.920000 0.952381
vt 0.920001 0.238095
vt 0.920001 0.571429
vt 0.920000 0.904762
vt 0.920001 0.190476
vt 0.920001 0.523810
vt 0.920000 0.857143
vt 0.920000 0.142857
vt 0.920001 0.476190
vt 0.920000 0.095238
vt 0.880001 0.714286
vt 0.900000 0.000000
vt 0.880000 0.047619
vt 0.880001 0.333333
vt 0.880001 0.666667
vt 0.880001 0.285714
vt 0.880001 0.619048
vt 0.900000 1.000000
vt 0.880000 0.952381
vt 0.880001 0.238095
vt 0.880001 0.571429
vt 0.880000 0.904762
vt 0.880000 0.190476
vt 0.880001 0.523810
vt 0.880000 0.857143
vt 0.880000 0.142857
vt 0.880001 0.476190
vt 0.880001 0.809524
vt 0.880000 0.095238
vt 0.880001 0.428571
vt 0.880001 0.761905
vt 0.880001 0.380952
vt 0.840001 0.285714
vt 0.840001 0.619048
vt 0.860000 1.000000
vt 0.840000 0.952381
vt 0.840001 0.238095
vt 0.840001 0.571429
vt 0.840001 0.904762
vt 0.840001 0.190476
vt 0.840001 0.523810
vt 0.840001 0.857143
vt 0.840001 0.142857
vt 0.840001 0.476190
vt 0.840001 0.809524
vt 0.840001 0.095238
vt 0.840001 0.428571
vt 0.840001 0.761905
vt 0.840000 0.047619
vt 0.840001 0.380952
vt 0.840001 0.714286
vt 0.860000 0.000000
vt 0.840001 0.333333
vt 0.840001 0.666667
vt 0.800001 0.571429
vt 0.800001 0.904762
vt 0.800001 0.190476
vt 0.800001 0.523810
vt 0.800001 0.857143
vt 0.800001 0.142857
vt 0.800001 0.476190
vt 0.800001 0.809524
vt 0.800000 0.095238
vt 0.800001 0.428571
vt 0.800001 0.761905
vt 0.800000 0.047619
vt 0.800001 0.380952
vt 0.800001 0.714286
vt 0.820000 0.000000
vt 0.800001 0.333333
vt 0.800001 0.666667
vt 0.800001 0.285714
vt 0.800001 0.619048
vt 0.820000 1.000000
vt 0.800000 0.952381
vt 0.800001 0.238095
vt 0.760001 0.857143
vt 0.760001 0.190476
vt 0.760001 0.142857
vt 0.760001 0.476190
vt 0.760001 0.809524
vt 0.760001 0.095238
vt 0.760001 0.428571
vt 0.760001 0.761905
vt 0.760000 0.047619
vt 0.760001 0.380952
vt 0.760001 0.714286
vt 0.780000 0.000000
vt 0.760001 0.333333
vt 0.760001 0.666667
vt 0.760001 0.285714
vt 0.760001 0.619048
vt 0.780001 1.000000
vt 0.760000 0.952381
vt 0.760001 0.238095
vt 0.760001 0.571429
vt 0.760001 0.904762
vt 0.760001 0.523810
vt 0.740001 0.000000
vt 0.740001 1.000000
vn 0.0000 0.4974 -0.8675
vn 0.2317 0.3633 -0.9024
vn 0.0000 0.3633 -0.9316
vn 0.0000 0.9879 -0.1549
vn 0.0000 1.0000 0.0000
vn 0.0385 0.9879 -0.1500
vn 0.0000 -0.7301 -0.6833
vn 0.1950 -0.6206 -0.7595
vn 0.1699 -0.7301 -0.6619
vn 0.2425 0.2212 -0.9446
vn 0.0000 0.2212 -0.9752
vn 0.0746 0.9539 -0.2907
vn 0.0000 0.9539 -0.3002
vn 0.1411 -0.8235 -0.5495
vn 0.0000 -0.8235 -0.5674
vn 0.2480 0.0743 -0.9659
vn 0.0000 0.0743 -0.9972
vn 0.1091 0.8986 -0.4249
vn 0.0000 0.8986 -0.4387
vn 0.0000 -0.8986 -0.4387
vn 0.1091 -0.8986 -0.4249
vn 0.2480 -0.0743 -0.9659
vn 0.0000 -0.0743 -0.9972
vn 0.1411 0.8235 -0.5495
vn 0.0000 0.8235 -0.5674
vn 0.0746 -0.9539 -0.2907
vn 0.0000 -0.9539 -0.3002
vn 0.2425 -0.2212 -0.9446
vn 0.0000 -0.2212 -0.9752
vn 0.1699 0.7301 -0.6619
vn 0.0000 0.7301 -0.6833
vn 0.0385 -0.9879 -0.1500
vn 0.0000 -0.9879 -0.1549
vn 0.2317 -0.3633 -0.9024
vn 0.0000 -0.3633 -0.9316
vn 0.1950 0.6206 -0.7595
vn 0.0000 0.6206 -0.7841
vn 0.0000 -1.0000 0.0000
vn 0.0000 -0.4974 -0.8675
vn 0.2157 -0.4974 -0.8402
vn 0.2157 0.4974 -0.8402
vn 0.0000 -0.6206 -0.7841
vn 0.4488 0.3633 -0.8164
vn 0.4698 0.2212 -0.8546
vn 0.1446 0.9539 -0.2630
vn 0.2733 -0.8235 -0.4972
vn 0.4804 0.0743 -0.8739
vn 0.2113 0.8986 -0.3844
vn 0.2113 -0.8986 -0.3844
vn 0.4804 -0.0743 -0.8739
vn 0.2733 0.8235 -0.4972
vn 0.1446 -0.9539 -0.2630
vn 0.4698 -0.2212 -0.8546
vn 0.3292 0.7301 -0.5988
vn 0.0746 -0.9879 -0.1357
vn 0.4488 -0.3633 -0.8164
vn 0.3777 0.6206 -0.6871
vn 0.4179 -0.4974 -0.7602
vn 0.4179 0.4974 -0.7602
vn 0.3777 -0.6206 -0.6871
vn 0.0746 0.9879 -0.1357
vn 0.3292 -0.7301 -0.5988
vn 0.3003 0.8986 -0.3198
vn 0.3003 -0.8986 -0.3198
vn 0.6826 -0.0743 -0.7270
vn 0.3884 0.8235 -0.4136
vn 0.2055 -0.9539 -0.2188
vn 0.6676 -0.2212 -0.7109
vn 0.4678 0.7301 -0.4981
vn 0.1060 -0.9879 -0.1129
vn 0.6377 -0.3633 -0.6791
vn 0.5368 0.6206 -0.5716
vn 0.5938 -0.4974 -0.6324
vn 0.5938 0.4974 -0.6324
vn 0.5368 -0.6206 -0.5716
vn 0.6377 0.3633 -0.6791
vn 0.1060 0.9879 -0.1129
vn 0.4678 -0.7301 -0.4981
vn 0.6676 0.2212 -0.7109
vn 0.2055 0.9539 -0.2188
vn 0.3884 -0.8235 -0.4136
vn 0.6826 0.0743 -0.7270
vn 0.8420 -0.0743 -0.5343
vn 0.8234 -0.2212 -0.5225
vn 0.4790 0.8235 -0.3040
vn 0.5770 0.7301 -0.3661
vn 0.1307 -0.9879 -0.0830
vn 0.7866 -0.3633 -0.4992
vn 0.6620 0.6206 -0.4201
vn 0.7324 -0.4974 -0.4648
vn 0.7324 0.4974 -0.4648
vn 0.6620 -0.6206 -0.4201
vn 0.7866 0.3633 -0.4992
vn 0.1307 0.9879 -0.0830
vn 0.5770 -0.7301 -0.3661
vn 0.8234 0.2212 -0.5225
vn 0.2535 0.9539 -0.1608
vn 0.4790 -0.8235 -0.3040
vn 0.8420 0.0743 -0.5343
vn 0.3704 0.8986 -0.2351
vn 0.3704 -0.8986 -0.2351
vn 0.2535 -0.9539 -0.1608
vn 0.7458 0.6206 -0.2423
vn 0.1473 -0.9879 -0.0479
vn 0.8250 -0.4974 -0.2680
vn 0.8250 0.4974 -0.2680
vn 0.7458 -0.6206 -0.2423
vn 0.8860 0.3633 -0.2879
vn 0.1473 0.9879 -0.0479
vn 0.6499 -0.7301 -0.2112
vn 0.9275 0.2212 -0.3013
vn 0.2855 0.9539 -0.0927
vn 0.5396 -0.8235 -0.1753
vn 0.9484 0.0743 -0.3081
vn 0.4172 0.8986 -0.1356
vn 0.4172 -0.8986 -0.1356
vn 0.9484 -0.0743 -0.3081
vn 0.5396 0.8235 -0.1753
vn 0.2855 -0.9539 -0.0927
vn 0.9275 -0.2212 -0.3013
vn 0.6499 0.7301 -0.2112
vn 0.8860 -0.3633 -0.2879
vn 0.7826 -0.6206 -0.0492
vn 0.8658 0.4974 -0.0544
vn 0.9298 0.3633 -0.0585
vn 0.1545 0.9879 -0.0097
vn 0.6820 -0.7301 -0.0429
vn 0.9733 0.2212 -0.0612
vn 0.2996 0.9539 -0.0188
vn 0.5662 -0.8235 -0.0356
vn 0.9952 0.0743 -0.0626
vn 0.4378 0.8986 -0.0275
vn 0.4378 -0.8986 -0.0275
vn 0.9952 -0.0743 -0.0626
vn 0.5662 0.8235 -0.0356
vn 0.2996 -0.9539 -0.0188
vn 0.9733 -0.2212 -0.0612
vn 0.6820 0.7301 -0.0429
vn 0.1545 -0.9879 -0.0097
vn 0.9298 -0.3633 -0.0585
vn 0.7826 0.6206 -0.0492
vn 0.8658 -0.4974 -0.0544
vn 0.7702 -0.6206 0.1469
vn 0.6712 -0.7301 0.1280
vn 0.9579 0.2212 0.1827
vn 0.1521 0.9879 0.0290
vn 0.2949 0.9539 0.0562
vn 0.5573 -0.8235 0.1063
vn 0.9796 0.0743 0.1868
vn 0.4309 0.8986 0.0822
vn 0.4309 -0.8986 0.0822
vn 0.9796 -0.0743 0.1868
vn 0.5573 0.8235 0.1063
vn 0.2949 -0.9539 0.0562
vn 0.9579 -0.2212 0.1827
vn 0.6712 0.7301 0.1280
vn 0.1521 -0.9879 0.0290
vn 0.9152 -0.3633 0.1746
vn 0.7702 0.6206 0.1469
vn 0.8521 -0.4974 0.1625
vn 0.8521 0.4974 0.1625
vn 0.9152 0.3633 0.1746
vn 0.8824 0.2212 0.4152
vn 0.9023 0.0743 0.4246
vn 0.3970 0.8986 0.1868
vn 0.3970 -0.8986 0.1868
vn 0.9023 -0.0743 0.4246
vn 0.5134 0.8235 0.2416
vn 0.2716 -0.9539 0.1278
vn 0.8824 -0.2212 0.4152
vn 0.6183 0.7301 0.2909
vn 0.1401 -0.9879 0.0659
vn 0.8430 -0.3633 0.3967
vn 0.7095 0.6206 0.3338
vn 0.7849 -0.4974 0.3693
vn 0.7849 0.4974 0.3693
vn 0.7095 -0.6206 0.3338
vn 0.8430 0.3633 0.3967
vn 0.1401 0.9879 0.0659
vn 0.6183 -0.7301 0.2909
vn 0.2716 0.9539 0.1278
vn 0.5134 -0.8235 0.2416
vn 0.3380 0.8986 0.2796
vn 0.4371 0.8235 0.3616
vn 0.2313 -0.9539 0.1913
vn 0.7514 -0.2212 0.6216
vn 0.5265 0.7301 0.4356
vn 0.1193 -0.9879 0.0987
vn 0.7179 -0.3633 0.5939
vn 0.6042 0.6206 0.4998
vn 0.6684 -0.4974 0.5530
vn 0.6684 0.4974 0.5530
vn 0.6042 -0.6206 0.4998
vn 0.7179 0.3633 0.5939
vn 0.1193 0.9879 0.0987
vn 0.5265 -0.7301 0.4356
vn 0.7514 0.2212 0.6216
vn 0.2313 0.9539 0.1913
vn 0.4371 -0.8235 0.3616
vn 0.7684 0.0743 0.6356
vn 0.3380 -0.8986 0.2796
vn 0.7684 -0.0743 0.6356
vn 0.5732 -0.2212 0.7890
vn 0.5476 -0.3633 0.7537
vn 0.4609 0.6206 0.6344
vn 0.0910 -0.9879 0.1253
vn 0.5099 -0.4974 0.7018
vn 0.5099 0.4974 0.7018
vn 0.4609 -0.6206 0.6344
vn 0.5476 0.3633 0.7537
vn 0.0910 0.9879 0.1253
vn 0.4017 -0.7301 0.5528
vn 0.5732 0.2212 0.7890
vn 0.1764 0.9539 0.2428
vn 0.3335 -0.8235 0.4590
vn 0.5861 0.0743 0.8068
vn 0.2579 0.8986 0.3549
vn 0.2579 -0.8986 0.3549
vn 0.5861 -0.0743 0.8068
vn 0.3335 0.8235 0.4590
vn 0.1764 -0.9539 0.2428
vn 0.4017 0.7301 0.5528
vn 0.2886 0.6206 0.7291
vn 0.3193 0.4974 0.8066
vn 0.2886 -0.6206 0.7291
vn 0.3430 0.3633 0.8662
vn 0.0570 0.9879 0.1440
vn 0.2515 -0.7301 0.6354
vn 0.3590 0.2212 0.9067
vn 0.1105 0.9539 0.2791
vn 0.2088 -0.8235 0.5275
vn 0.3671 0.0743 0.9272
vn 0.1615 0.8986 0.4079
vn 0.1615 -0.8986 0.4079
vn 0.3671 -0.0743 0.9272
vn 0.2088 0.8235 0.5275
vn 0.1105 -0.9539 0.2791
vn 0.3590 -0.2212 0.9067
vn 0.2515 0.7301 0.6354
vn 0.0570 -0.9879 0.1440
vn 0.3430 -0.3633 0.8662
vn 0.3193 -0.4974 0.8066
vn 0.0194 0.9879 0.1536
vn 0.0983 -0.6206 0.7779
vn 0.0856 -0.7301 0.6779
vn 0.1168 0.3633 0.9243
vn 0.1222 0.2212 0.9675
vn 0.0376 0.9539 0.2978
vn 0.0711 -0.8235 0.5629
vn 0.1250 0.0743 0.9893
vn 0.0550 0.8986 0.4352
vn 0.0550 -0.8986 0.4352
vn 0.1250 -0.0743 0.9893
vn 0.0711 0.8235 0.5629
vn 0.0376 -0.9539 0.2978
vn 0.1222 -0.2212 0.9675
vn 0.0856 0.7301 0.6779
vn 0.0194 -0.9879 0.1536
vn 0.1168 -0.3633 0.9243
vn 0.0983 0.6206 0.7779
vn 0.1087 -0.4974 0.8607
vn 0.1087 0.4974 0.8607
vn -0.0856 -0.7301 0.6779
vn -0.0711 -0.8235 0.5629
vn -0.1222 0.2212 0.9675
vn -0.1250 0.0743 0.9893
vn -0.0550 0.8986 0.4352
vn -0.0550 -0.8986 0.4352
vn -0.1250 -0.0743 0.9893
vn -0.0711 0.8235 0.5629
vn -0.0376 -0.9539 0.2978
vn -0.1222 -0.2212 0.9675
vn -0.0856 0.7301 0.6779
vn -0.0194 -0.9879 0.1536
vn -0.1168 -0.3633 0.9243
vn -0.0983 0.6206 0.7779
vn -0.1087 -0.4974 0.8607
vn -0.1087 0.4974 0.8607
vn -0.0983 -0.6206 0.7779
vn -0.1168 0.3633 0.9243
vn -0.0194 0.9879 0.1536
vn -0.0376 0.9539 0.2978
vn -0.3671 -0.0743 0.9272
vn -0.1615 0.8986 0.4079
vn -0.2088 0.8235 0.5275
vn -0.1615 -0.8986 0.4079
vn -0.1105 -0.9539 0.2791
vn -0.3590 -0.2212 0.9067
vn -0.2515 0.7301 0.6354
vn -0.0570 -0.9879 0.1440
vn -0.3430 -0.3633 0.8662
vn -0.2886 0.6206 0.7291
vn -0.3193 -0.4974 0.8066
vn -0.3193 0.4974 0.8066
vn -0.2886 -0.6206 0.7291
vn -0.3430 0.3633 0.8662
vn -0.0570 0.9879 0.1440
vn -0.2515 -0.7301 0.6354
vn -0.3590 0.2212 0.9067
vn -0.1105 0.9539 0.2791
vn -0.2088 -0.8235 0.5275
vn -0.3671 0.0743 0.9272
vn -0.3335 0.8235 0.4590
vn -0.4017 0.7301 0.5528
vn -0.0910 -0.9879 0.1253
vn -0.5732 -0.2212 0.7890
vn -0.5476 -0.3633 0.7537
vn -0.4609 0.6206 0.6344
vn -0.5099 -0.4974 0.7018
vn -0.5099 0.4974 0.7018
vn -0.4609 -0.6206 0.6344
vn -0.5476 0.3633 0.7537
vn -0.0910 0.9879 0.1253
vn -0.4017 -0.7301 0.5528
vn -0.5732 0.2212 0.7890
vn -0.1764 0.9539 0.2428
vn -0.3335 -0.8235 0.4590
vn -0.5861 0.0743 0.8068
vn -0.2579 0.8986 0.3549
vn -0.2579 -0.8986 0.3549
vn -0.5861 -0.0743 0.8068
vn -0.1764 -0.9539 0.2428
vn -0.6684 -0.4974 0.5530
vn -0.6042 0.6206 0.4998
vn -0.6684 0.4974 0.5530
vn -0.6042 -0.6206 0.4998
vn -0.7179 0.3633 0.5939
vn -0.1193 0.9879 0.0987
vn -0.5265 -0.7301 0.4356
vn -0.7514 0.2212 0.6216
vn -0.2313 0.9539 0.1913
vn -0.4371 -0.8235 0.3616
vn -0.7684 0.0743 0.6356
vn -0.3380 0.8986 0.2796
vn -0.3380 -0.8986 0.2796
vn -0.7684 -0.0743 0.6356
vn -0.4371 0.8235 0.3616
vn -0.2313 -0.9539 0.1913
vn -0.7514 -0.2212 0.6216
vn -0.5265 0.7301 0.4356
vn -0.1193 -0.9879 0.0987
vn -0.7179 -0.3633 0.5939
vn -0.7849 0.4974 0.3693
vn -0.8430 0.3633 0.3967
vn -0.1401 0.9879 0.0659
vn -0.7095 -0.6206 0.3338
vn -0.6183 -0.7301 0.2909
vn -0.8824 0.2212 0.4152
vn -0.2716 0.9539 0.1278
vn -0.5134 -0.8235 0.2416
vn -0.9023 0.0743 0.4246
vn -0.3970 0.8986 0.1868
vn -0.3970 -0.8986 0.1868
vn -0.9023 -0.0743 0.4246
vn -0.5134 0.8235 0.2416
vn -0.2716 -0.9539 0.1278
vn -0.8824 -0.2212 0.4152
vn -0.6183 0.7301 0.2909
vn -0.1401 -0.9879 0.0659
vn -0.8430 -0.3633 0.3967
vn -0.7095 0.6206 0.3338
vn -0.7849 -0.4974 0.3693
vn -0.2949 0.9539 0.0562
vn -0.5573 -0.8235 0.1063
vn -0.9579 0.2212 0.1827
vn -0.9796 0.0743 0.1868
vn -0.4309 0.8986 0.0822
vn -0.4309 -0.8986 0.0822
vn -0.9796 -0.0743 0.1868
vn -0.5573 0.8235 0.1063
vn -0.2949 -0.9539 0.0562
vn -0.9579 -0.2212 0.1827
vn -0.6712 0.7301 0.1280
vn -0.1521 -0.9879 0.0290
vn -0.9152 -0.3633 0.1746
vn -0.7702 0.6206 0.1469
vn -0.8521 -0.4974 0.1625
vn -0.8521 0.4974 0.1625
vn -0.7702 -0.6206 0.1469
vn -0.9152 0.3633 0.1746
vn -0.1521 0.9879 0.0290
vn -0.6712 -0.7301 0.1280
vn -0.4378 -0.8986 -0.0275
vn -0.9952 -0.0743 -0.0626
vn -0.4378 0.8986 -0.0275
vn -0.5662 0.8235 -0.0356
vn -0.2996 -0.9539 -0.0188
vn -0.9733 -0.2212 -0.0612
vn -0.6820 0.7301 -0.0429
vn -0.1545 -0.9879 -0.0097
vn -0.9298 -0.3633 -0.0585
vn -0.7826 0.6206 -0.0492
vn -0.8658 -0.4974 -0.0544
vn -0.8658 0.4974 -0.0544
vn -0.7826 -0.6206 -0.0492
vn -0.9298 0.3633 -0.0585
vn -0.1545 0.9879 -0.0097
vn -0.6820 -0.7301 -0.0429
vn -0.9733 0.2212 -0.0612
vn -0.2996 0.9539 -0.0188
vn -0.5662 -0.8235 -0.0356
vn -0.9952 0.0743 -0.0626
vn -0.9275 -0.2212 -0.3013
vn -0.5396 0.8235 -0.1753
vn -0.6499 0.7301 -0.2112
vn -0.1473 -0.9879 -0.0479
vn -0.8860 -0.3633 -0.2879
vn -0.7458 0.6206 -0.2423
vn -0.8250 -0.4974 -0.2680
vn -0.8250 0.4974 -0.2680
vn -0.7458 -0.6206 -0.2423
vn -0.8860 0.3633 -0.2879
vn -0.1473 0.9879 -0.0479
vn -0.6499 -0.7301 -0.2112
vn -0.9275 0.2212 -0.3013
vn -0.2855 0.9539 -0.0927
vn -0.5396 -0.8235 -0.1753
vn -0.9484 0.0743 -0.3081
vn -0.4172 0.8986 -0.1356
vn -0.4172 -0.8986 -0.1356
vn -0.9484 -0.0743 -0.3081
vn -0.2855 -0.9539 -0.0927
vn -0.6620 0.6206 -0.4201
vn -0.1307 -0.9879 -0.0830
vn -0.7324 -0.4974 -0.4648
vn -0.7324 0.4974 -0.4648
vn -0.6620 -0.6206 -0.4201
vn -0.7866 0.3633 -0.4992
vn -0.1307 0.9879 -0.0830
vn -0.5770 -0.7301 -0.3661
vn -0.8234 0.2212 -0.5225
vn -0.2535 0.9539 -0.1608
vn -0.4790 -0.8235 -0.3040
vn -0.8420 0.0743 -0.5343
vn -0.3704 0.8986 -0.2351
vn -0.3704 -0.8986 -0.2351
vn -0.8420 -0.0743 -0.5343
vn -0.4790 0.8235 -0.3040
vn -0.2535 -0.9539 -0.1608
vn -0.8234 -0.2212 -0.5225
vn -0.5770 0.7301 -0.3661
vn -0.7866 -0.3633 -0.4992
vn -0.5368 -0.6206 -0.5716
vn -0.6377 0.3633 -0.6791
vn -0.1060 0.9879 -0.1129
vn -0.4678 -0.7301 -0.4981
vn -0.6676 0.2212 -0.7109
vn -0.2055 0.9539 -0.2188
vn -0.3884 -0.8235 -0.4136
vn -0.6826 0.0743 -0.7270
vn -0.3003 0.8986 -0.3198
vn -0.3003 -0.8986 -0.3198
vn -0.6826 -0.0743 -0.7270
vn -0.3884 0.8235 -0.4136
vn -0.2055 -0.9539 -0.2188
vn -0.6676 -0.2212 -0.7109
vn -0.4678 0.7301 -0.4981
vn -0.1060 -0.9879 -0.1129
vn -0.6377 -0.3633 -0.6791
vn -0.5368 0.6206 -0.5716
vn -0.5938 -0.4974 -0.6324
vn -0.5938 0.4974 -0.6324
vn -0.4698 0.2212 -0.8546
vn -0.1446 0.9539 -0.2630
vn -0.2733 -0.8235 -0.4972
vn -0.4804 0.0743 -0.8739
vn -0.2113 0.8986 -0.3844
vn -0.2113 -0.8986 -0.3844
vn -0.4804 -0.0743 -0.8739
vn -0.2733 0.8235 -0.4972
vn -0.1446 -0.9539 -0.2630
vn -0.4698 -0.2212 -0.8546
vn -0.3292 0.7301 -0.5988
vn -0.0746 -0.9879 -0.1357
vn -0.4488 -0.3633 -0.8164
vn -0.3777 0.6206 -0.6871
vn -0.4179 -0.4974 -0.7602
vn -0.4179 0.4974 -0.7602
vn -0.3777 -0.6206 -0.6871
vn -0.4488 0.3633 -0.8164
vn -0.0746 0.9879 -0.1357
vn -0.3292 -0.7301 -0.5988
vn -0.1091 0.8986 -0.4249
vn -0.1411 -0.8235 -0.5495
vn -0.1091 -0.8986 -0.4249
vn -0.2480 -0.0743 -0.9659
vn -0.1411 0.8235 -0.5495
vn -0.0746 -0.9539 -0.2907
vn -0.2425 -0.2212 -0.9446
vn -0.1699 0.7301 -0.6619
vn -0.0385 -0.9879 -0.1500
vn -0.2317 -0.3633 -0.9024
vn -0.1950 0.6206 -0.7595
vn -0.2157 -0.4974 -0.8402
vn -0.2157 0.4974 -0.8402
vn -0.1950 -0.6206 -0.7595
vn -0.2317 0.3633 -0.9024
vn -0.0385 0.9879 -0.1500
vn -0.1699 -0.7301 -0.6619
vn -0.2425 0.2212 -0.9446
vn -0.0746 0.9539 -0.2907
vn -0.2480 0.0743 -0.9659
s 1
f 6/1/1 27/2/2 7/3/3
f 501/4/4 80/5/5 20/6/6
f 15/7/7 34/8/8 35/9/9
f 7/3/3 28/10/10 8/11/11
f 501/4/4 21/12/12 1/13/13
f 15/7/7 36/14/14 16/15/15
f 8/11/11 29/16/16 9/17/17
f 1/13/13 22/18/18 2/19/19
f 17/20/20 36/14/14 37/21/21
f 9/17/17 30/22/22 10/23/23
f 2/19/19 23/24/24 3/25/25
f 17/20/20 38/26/26 18/27/27
f 10/23/23 31/28/28 11/29/29
f 3/25/25 24/30/30 4/31/31
f 18/27/27 39/32/32 19/33/33
f 11/29/29 32/34/34 12/35/35
f 4/31/31 25/36/36 5/37/37
f 502/38/38 19/33/33 39/32/32
f 13/39/39 32/34/34 33/40/40
f 5/37/37 26/41/41 6/1/1
f 14/42/42 33/40/40 34/8/8
f 28/10/10 47/43/43 48/44/44
f 20/6/6 41/45/45 21/12/12
f 35/9/9 56/46/46 36/14/14
f 28/10/10 49/47/47 29/16/16
f 21/12/12 42/48/48 22/18/18
f 36/14/14 57/49/49 37/21/21
f 29/16/16 50/50/50 30/22/22
f 23/24/24 42/48/48 43/51/51
f 37/21/21 58/52/52 38/26/26
f 30/22/22 51/53/53 31/28/28
f 23/24/24 44/54/54 24/30/30
f 38/26/26 59/55/55 39/32/32
f 32/34/34 51/53/53 52/56/56
f 24/30/30 45/57/57 25/36/36
f 502/58/38 39/32/32 59/55/55
f 32/34/34 53/59/58 33/40/40
f 25/36/36 46/60/59 26/41/41
f 33/40/40 54/61/60 34/8/8
f 27/2/2 46/60/59 47/43/43
f 20/6/6 80/62/5 40/63/61
f 34/8/8 55/64/62 35/9/9
f 41/45/45 62/65/63 42/48/48
f 56/46/46 77/66/64 57/49/49
f 49/47/47 70/67/65 50/50/50
f 42/48/48 63/68/66 43/51/51
f 57/49/49 78/69/67 58/52/52
f 51/53/53 70/67/65 71/70/68
f 44/54/54 63/68/66 64/71/69
f 59/55/55 78/69/67 79/72/70
f 51/53/53 72/73/71 52/56/56
f 44/54/54 65/74/72 45/57/57
f 502/75/38 59/55/55 79/72/70
f 52/56/56 73/76/73 53/59/58
f 45/57/57 66/77/74 46/60/59
f 53/59/58 74/78/75 54/61/60
f 46/60/59 67/79/76 47/43/43
f 40/63/61 80/80/5 60/81/77
f 55/64/62 74/78/75 75/82/78
f 48/44/44 67/79/76 68/83/79
f 40/63/61 61/84/80 41/45/45
f 55/64/62 76/85/81 56/46/46
f 48/44/44 69/86/82 49/47/47
f 71/70/68 91/87/83 92/88/84
f 64/71/69 84/89/85 85/90/86
f 78/69/67 100/91/87 79/72/70
f 71/70/68 93/92/88 72/73/71
f 64/71/69 86/93/89 65/74/72
f 502/94/38 79/72/70 100/91/87
f 72/73/71 94/95/90 73/76/73
f 65/74/72 87/96/91 66/77/74
f 73/76/73 95/97/92 74/78/75
f 66/77/74 88/98/93 67/79/76
f 60/81/77 80/99/5 81/100/94
f 75/82/78 95/97/92 96/101/95
f 67/79/76 89/102/96 68/83/79
f 60/81/77 82/103/97 61/84/80
f 76/85/81 96/101/95 97/104/98
f 68/83/79 90/105/99 69/86/82
f 61/84/80 83/106/100 62/65/63
f 76/85/81 98/107/101 77/66/64
f 69/86/82 91/87/83 70/67/65
f 62/65/63 84/89/85 63/68/66
f 77/66/64 99/108/102 78/69/67
f 85/90/86 106/109/103 86/93/89
f 502/110/38 100/91/87 120/111/104
f 93/92/88 114/112/105 94/95/90
f 86/93/89 107/113/106 87/96/91
f 94/95/90 115/114/107 95/97/92
f 88/98/93 107/113/106 108/115/108
f 81/100/94 80/116/5 101/117/109
f 96/101/95 115/114/107 116/118/110
f 88/98/93 109/119/111 89/102/96
f 82/103/97 101/117/109 102/120/112
f 96/101/95 117/121/113 97/104/98
f 90/105/99 109/119/111 110/122/114
f 82/103/97 103/123/115 83/106/100
f 97/104/98 118/124/116 98/107/101
f 90/105/99 111/125/117 91/87/83
f 83/106/100 104/126/118 84/89/85
f 98/107/101 119/127/119 99/108/102
f 91/87/83 112/128/120 92/88/84
f 85/90/86 104/126/118 105/129/121
f 99/108/102 120/111/104 100/91/87
f 93/92/88 112/128/120 113/130/122
f 114/112/105 135/131/123 115/114/107
f 108/115/108 127/132/124 128/133/125
f 101/117/109 80/134/5 121/135/126
f 116/118/110 135/131/123 136/136/127
f 109/119/111 128/133/125 129/137/128
f 101/117/109 122/138/129 102/120/112
f 117/121/113 136/136/127 137/139/130
f 110/122/114 129/137/128 130/140/131
f 102/120/112 123/141/132 103/123/115
f 118/124/116 137/139/130 138/142/133
f 110/122/114 131/143/134 111/125/117
f 103/123/115 124/144/135 104/126/118
f 118/124/116 139/145/136 119/127/119
f 112/128/120 131/143/134 132/146/137
f 104/126/118 125/147/138 105/129/121
f 120/111/104 139/145/136 140/148/139
f 113/130/122 132/146/137 133/149/140
f 105/129/121 126/150/141 106/109/103
f 502/151/38 120/111/104 140/148/139
f 113/130/122 134/152/142 114/112/105
f 107/113/106 126/150/141 127/132/124
f 136/136/127 155/153/143 156/154/144
f 128/133/125 149/155/145 129/137/128
f 122/138/129 141/156/146 142/157/147
f 136/136/127 157/158/148 137/139/130
f 130/140/131 149/155/145 150/159/149
f 122/138/129 143/160/150 123/141/132
f 137/139/130 158/161/151 138/142/133
f 130/140/131 151/162/152 131/143/134
f 123/141/132 144/163/153 124/144/135
f 138/142/133 159/164/154 139/145/136
f 132/146/137 151/162/152 152/165/155
f 125/147/138 144/163/153 145/166/156
f 139/145/136 160/167/157 140/148/139
f 133/149/140 152/165/155 153/168/158
f 125/147/138 146/169/159 126/150/141
f 502/170/38 140/148/139 160/167/157
f 133/149/140 154/171/160 134/152/142
f 126/150/141 147/172/161 127/132/124
f 134/152/142 155/153/143 135/131/123
f 128/133/125 147/172/161 148/173/162
f 121/135/126 80/174/5 141/156/146
f 150/159/149 169/175/163 170/176/164
f 142/157/147 163/177/165 143/160/150
f 157/158/148 178/178/166 158/161/151
f 150/159/149 171/179/167 151/162/152
f 143/160/150 164/180/168 144/163/153
f 158/161/151 179/181/169 159/164/154
f 152/165/155 171/179/167 172/182/170
f 145/166/156 164/180/168 165/183/171
f 159/164/154 180/184/172 160/167/157
f 153/168/158 172/182/170 173/185/173
f 145/166/156 166/186/174 146/169/159
f 502/187/38 160/167/157 180/184/172
f 153/168/158 174/188/175 154/171/160
f 146/169/159 167/189/176 147/172/161
f 154/171/160 175/190/177 155/153/143
f 148/173/162 167/189/176 168/191/178
f 141/156/146 80/192/5 161/193/179
f 156/154/144 175/190/177 176/194/180
f 149/155/145 168/191/178 169/175/163
f 141/156/146 162/195/181 142/157/147
f 157/158/148 176/194/180 177/196/182
f 164/180/168 183/197/183 184/198/184
f 178/178/166 199/199/185 179/181/169
f 171/179/167 192/200/186 172/182/170
f 165/183/171 184/198/184 185/201/187
f 179/181/169 200/202/188 180/184/172
f 172/182/170 193/203/189 173/185/173
f 165/183/171 186/204/190 166/186/174
f 502/205/38 180/184/172 200/202/188
f 173/185/173 194/206/191 174/188/175
f 166/186/174 187/207/192 167/189/176
f 174/188/175 195/208/193 175/190/177
f 168/191/178 187/207/192 188/209/194
f 161/193/179 80/210/5 181/211/195
f 176/194/180 195/208/193 196/212/196
f 169/175/163 188/209/194 189/213/197
f 161/193/179 182/214/198 162/195/181
f 176/194/180 197/215/199 177/196/182
f 170/176/164 189/213/197 190/216/200
f 162/195/181 183/197/183 163/177/165
f 177/196/182 198/217/201 178/178/166
f 170/176/164 191/218/202 171/179/167
f 193/203/189 212/219/203 213/220/204
f 185/201/187 206/221/205 186/204/190
f 502/222/38 200/202/188 220/223/206
f 193/203/189 214/224/207 194/206/191
f 187/207/192 206/221/205 207/225/208
f 194/206/191 215/226/209 195/208/193
f 188/209/194 207/225/208 208/227/210
f 181/211/195 80/228/5 201/229/211
f 196/212/196 215/226/209 216/230/212
f 189/213/197 208/227/210 209/231/213
f 181/211/195 202/232/214 182/214/198
f 196/212/196 217/233/215 197/215/199
f 190/216/200 209/231/213 210/234/216
f 182/214/198 203/235/217 183/197/183
f 197/215/199 218/236/218 198/217/201
f 190/216/200 211/237/219 191/218/202
f 184/198/184 203/235/217 204/238/220
f 198/217/201 219/239/221 199/199/185
f 191/218/202 212/219/203 192/200/186
f 185/201/187 204/238/220 205/240/222
f 199/199/185 220/223/206 200/202/188
f 207/225/208 226/241/223 227/242/224
f 214/224/207 235/243/225 215/226/209
f 208/227/210 227/242/224 228/244/226
f 201/229/211 80/245/5 221/246/227
f 216/230/212 235/243/225 236/247/228
f 208/227/210 229/248/229 209/231/213
f 202/232/214 221/246/227 222/249/230
f 216/230/212 237/250/231 217/233/215
f 210/234/216 229/248/229 230/251/232
f 202/232/214 223/252/233 203/235/217
f 217/233/215 238/253/234 218/236/218
f 210/234/216 231/254/235 211/237/219
f 204/238/220 223/252/233 224/255/236
f 218/236/218 239/256/237 219/239/221
f 211/237/219 232/257/238 212/219/203
f 205/240/222 224/255/236 225/258/239
f 219/239/221 240/259/240 220/223/206
f 213/220/204 232/257/238 233/260/241
f 206/221/205 225/258/239 226/241/223
f 502/261/38 220/223/206 240/259/240
f 213/220/204 234/262/242 214/224/207
f 221/246/227 80/263/5 241/264/243
f 236/247/228 255/265/244 256/266/245
f 229/248/229 248/267/246 249/268/247
f 221/246/227 242/269/248 222/249/230
f 236/247/228 257/270/249 237/250/231
f 230/251/232 249/268/247 250/271/250
f 222/249/230 243/272/251 223/252/233
f 237/250/231 258/273/252 238/253/234
f 230/251/232 251/274/253 231/254/235
f 224/255/236 243/272/251 244/275/254
f 239/256/237 258/273/252 259/276/255
f 231/254/235 252/277/256 232/257/238
f 225/258/239 244/275/254 245/278/257
f 239/256/237 260/279/258 240/259/240
f 232/257/238 253/280/259 233/260/241
f 225/258/239 246/281/260 226/241/223
f 502/282/38 240/259/240 260/279/258
f 233/260/241 254/283/261 234/262/242
f 227/242/224 246/281/260 247/284/262
f 234/262/242 255/265/244 235/243/225
f 228/244/226 247/284/262 248/267/246
f 257/270/249 276/285/263 277/286/264
f 250/271/250 269/287/265 270/288/266
f 242/269/248 263/289/267 243/272/251
f 257/270/249 278/290/268 258/273/252
f 250/271/250 271/291/269 251/274/253
f 243/272/251 264/292/270 244/275/254
f 258/273/252 279/293/271 259/276/255
f 251/274/253 272/294/272 252/277/256
f 245/278/257 264/292/270 265/295/273
f 259/276/255 280/296/274 260/279/258
f 253/280/259 272/294/272 273/297/275
f 245/278/257 266/298/276 246/281/260
f 502/299/38 260/279/258 280/296/274
f 253/280/259 274/300/277 254/283/261
f 247/284/262 266/298/276 267/301/278
f 254/283/261 275/302/279 255/265/244
f 247/284/262 268/303/280 248/267/246
f 241/264/243 80/304/5 261/305/281
f 256/266/245 275/302/279 276/285/263
f 249/268/247 268/303/280 269/287/265
f 241/264/243 262/306/282 242/269/248
f 270/288/266 291/307/283 271/291/269
f 264/292/270 283/308/284 284/309/285
f 279/293/271 298/310/286 299/311/287
f 271/291/269 292/312/288 272/294/272
f 265/295/273 284/309/285 285/313/289
f 279/293/271 300/314/290 280/296/274
f 273/297/275 292/312/288 293/315/291
f 265/295/273 286/316/292 266/298/276
f 502/317/38 280/296/274 300/314/290
f 273/297/275 294/318/293 274/300/277
f 267/301/278 286/316/292 287/319/294
f 274/300/277 295/320/295 275/302/279
f 267/301/278 288/321/296 268/303/280
f 261/305/281 80/322/5 281/323/297
f 276/285/263 295/320/295 296/324/298
f 269/287/265 288/321/296 289/325/299
f 261/305/281 282/326/300 262/306/282
f 276/285/263 297/327/301 277/286/264
f 270/288/266 289/325/299 290/328/302
f 262/306/282 283/308/284 263/289/267
f 277/286/264 298/310/286 278/290/268
f 285/313/289 304/329/303 305/330/304
f 299/311/287 320/331/305 300/314/290
f 293/315/291 312/332/306 313/333/307
f 285/313/289 306/334/308 286/316/292
f 502/335/38 300/314/290 320/331/305
f 293/315/291 314/336/309 294/318/293
f 287/319/294 306/334/308 307/337/310
f 294/318/293 315/338/311 295/320/295
f 287/319/294 308/339/312 288/321/296
f 281/323/297 80/340/5 301/341/313
f 296/324/298 315/338/311 316/342/314
f 289/325/299 308/339/312 309/343/315
f 281/323/297 302/344/316 282/326/300
f 296/324/298 317/345/317 297/327/301
f 290/328/302 309/343/315 310/346/318
f 282/326/300 303/347/319 283/308/284
f 297/327/301 318/348/320 298/310/286
f 290/328/302 311/349/321 291/307/283
f 283/308/284 304/329/303 284/309/285
f 298/310/286 319/350/322 299/311/287
f 291/307/283 312/332/306 292/312/288
f 313/333/307 334/351/323 314/336/309
f 307/337/310 326/352/324 327/353/325
f 314/336/309 335/354/326 315/338/311
f 307/337/310 328/355/327 308/339/312
f 301/341/313 80/356/5 321/357/328
f 316/342/314 335/354/326 336/358/329
f 309/343/315 328/355/327 329/359/330
f 301/341/313 322/360/331 302/344/316
f 316/342/314 337/361/332 317/345/317
f 310/346/318 329/359/330 330/362/333
f 302/344/316 323/363/334 303/347/319
f 317/345/317 338/364/335 318/348/320
f 310/346/318 331/365/336 311/349/321
f 303/347/319 324/366/337 304/329/303
f 319/350/322 338/364/335 339/367/338
f 311/349/321 332/368/339 312/332/306
f 305/330/304 324/366/337 325/369/340
f 320/331/305 339/367/338 340/370/341
f 313/333/307 332/368/339 333/371/342
f 305/330/304 326/352/324 306/334/308
f 502/372/38 320/331/305 340/370/341
f 328/355/327 347/373/343 348/374/344
f 321/357/328 80/375/5 341/376/345
f 336/358/329 355/377/346 356/378/347
f 328/355/327 349/379/348 329/359/330
f 321/357/328 342/380/349 322/360/331
f 336/358/329 357/381/350 337/361/332
f 330/362/333 349/379/348 350/382/351
f 322/360/331 343/383/352 323/363/334
f 337/361/332 358/384/353 338/364/335
f 330/362/333 351/385/354 331/365/336
f 324/366/337 343/383/352 344/386/355
f 338/364/335 359/387/356 339/367/338
f 331/365/336 352/388/357 332/368/339
f 325/369/340 344/386/355 345/389/358
f 340/370/341 359/387/356 360/390/359
f 333/371/342 352/388/357 353/391/360
f 325/369/340 346/392/361 326/352/324
f 502/393/38 340/370/341 360/390/359
f 333/371/342 354/394/362 334/351/323
f 327/353/325 346/392/361 347/373/343
f 334/351/323 355/377/346 335/354/326
f 341/376/345 362/395/363 342/380/349
f 356/378/347 377/396/364 357/381/350
f 350/382/351 369/397/365 370/398/366
f 342/380/349 363/399/367 343/383/352
f 358/384/353 377/396/364 378/400/368
f 350/382/351 371/401/369 351/385/354
f 343/383/352 364/402/370 344/386/355
f 358/384/353 379/403/371 359/387/356
f 351/385/354 372/404/372 352/388/357
f 345/389/358 364/402/370 365/405/373
f 359/387/356 380/406/374 360/390/359
f 353/391/360 372/404/372 373/407/375
f 345/389/358 366/408/376 346/392/361
f 502/409/38 360/390/359 380/406/374
f 353/391/360 374/410/377 354/394/362
f 346/392/361 367/411/378 347/373/343
f 354/394/362 375/412/379 355/377/346
f 348/374/344 367/411/378 368/413/380
f 341/376/345 80/414/5 361/415/381
f 356/378/347 375/412/379 376/416/382
f 349/379/348 368/413/380 369/397/365
f 377/417/364 398/418/383 378/419/368
f 370/420/366 391/421/384 371/422/369
f 364/423/370 383/424/385 384/425/386
f 378/419/368 399/426/387 379/427/371
f 371/422/369 392/428/388 372/429/372
f 365/430/373 384/425/386 385/431/389
f 380/432/374 399/426/387 400/433/390
f 373/434/375 392/428/388 393/435/391
f 365/430/373 386/436/392 366/437/376
f 502/438/38 380/432/374 400/433/390
f 373/434/375 394/439/393 374/440/377
f 366/437/376 387/441/394 367/442/378
f 374/440/377 395/443/395 375/444/379
f 368/445/380 387/441/394 388/446/396
f 361/447/381 80/448/5 381/449/397
f 376/450/382 395/443/395 396/451/398
f 369/452/365 388/446/396 389/453/399
f 361/447/381 382/454/400 362/455/363
f 376/450/382 397/456/401 377/417/364
f 370/420/366 389/453/399 390/457/402
f 362/455/363 383/424/385 363/458/367
f 391/421/384 412/459/403 392/428/388
f 385/431/389 404/460/404 405/461/405
f 399/426/387 420/462/406 400/433/390
f 393/435/391 412/459/403 413/463/407
f 385/431/389 406/464/408 386/436/392
f 502/465/38 400/433/390 420/462/406
f 393/435/391 414/466/409 394/439/393
f 387/441/394 406/464/408 407/467/410
f 394/439/393 415/468/411 395/443/395
f 388/446/396 407/467/410 408/469/412
f 381/449/397 80/470/5 401/471/413
f 396/451/398 415/468/411 416/472/414
f 389/453/399 408/469/412 409/473/415
f 381/449/397 402/474/416 382/454/400
f 396/451/398 417/475/417 397/456/401
f 390/457/402 409/473/415 410/476/418
f 382/454/400 403/477/419 383/424/385
f 397/456/401 418/478/420 398/418/383
f 390/457/402 411/479/421 391/421/384
f 383/424/385 404/460/404 384/425/386
f 398/418/383 419/480/422 399/426/387
f 405/461/405 426/481/423 406/464/408
f 502/482/38 420/462/406 440/483/424
f 413/463/407 434/484/425 414/466/409
f 407/467/410 426/481/423 427/485/426
f 414/466/409 435/486/427 415/468/411
f 407/467/410 428/487/428 408/469/412
f 401/471/413 80/488/5 421/489/429
f 416/472/414 435/486/427 436/490/430
f 409/473/415 428/487/428 429/491/431
f 401/471/413 422/492/432 402/474/416
f 416/472/414 437/493/433 417/475/417
f 410/476/418 429/491/431 430/494/434
f 402/474/416 423/495/435 403/477/419
f 417/475/417 438/496/436 418/478/420
f 410/476/418 431/497/437 411/479/421
f 404/460/404 423/495/435 424/498/438
f 418/478/420 439/499/439 419/480/422
f 411/479/421 432/500/440 412/459/403
f 405/461/405 424/498/438 425/501/441
f 419/480/422 440/483/424 420/462/406
f 412/459/403 433/502/442 413/463/407
f 434/484/425 455/503/443 435/486/427
f 427/485/426 448/504/444 428/487/428
f 421/489/429 80/505/5 441/506/445
f 436/490/430 455/503/443 456/507/446
f 429/491/431 448/504/444 449/508/447
f 421/489/429 442/509/448 422/492/432
f 436/490/430 457/510/449 437/493/433
f 430/494/434 449/508/447 450/511/450
f 422/492/432 443/512/451 423/495/435
f 437/493/433 458/513/452 438/496/436
f 430/494/434 451/514/453 431/497/437
f 424/498/438 443/512/451 444/515/454
f 438/496/436 459/516/455 439/499/439
f 431/497/437 452/517/456 432/500/440
f 425/501/441 444/515/454 445/518/457
f 439/499/439 460/519/458 440/483/424
f 432/500/440 453/520/459 433/502/442
f 425/501/441 446/521/460 426/481/423
f 502/522/38 440/483/424 460/519/458
f 434/484/425 453/520/459 454/523/461
f 427/485/426 446/521/460 447/524/462
f 448/504/444 469/525/463 449/508/447
f 441/506/445 462/526/464 442/509/448
f 456/507/446 477/527/465 457/510/449
f 450/511/450 469/525/463 470/528/466
f 442/509/448 463/529/467 443/512/451
f 458/513/452 477/527/465 478/530/468
f 450/511/450 471/531/469 451/514/453
f 443/512/451 464/532/470 444/515/454
f 458/513/452 479/533/471 459/516/455
f 451/514/453 472/534/472 452/517/456
f 445/518/457 464/532/470 465/535/473
f 459/516/455 480/536/474 460/519/458
f 453/520/459 472/534/472 473/537/475
f 445/518/457 466/538/476 446/521/460
f 502/539/38 460/519/458 480/536/474
f 454/523/461 473/537/475 474/540/477
f 447/524/462 466/538/476 467/541/478
f 454/523/461 475/542/479 455/503/443
f 447/524/462 468/543/480 448/504/444
f 441/506/445 80/544/5 461/545/481
f 456/507/446 475/542/479 476/546/482
f 462/526/464 483/547/483 463/529/467
f 478/530/468 497/548/484 498/549/485
f 470/528/466 491/550/486 471/531/469
f 463/529/467 484/551/487 464/532/470
f 478/530/468 499/552/488 479/533/471
f 471/531/469 492/553/489 472/534/472
f 465/535/473 484/551/487 485/554/490
f 480/536/474 499/552/488 500/555/491
f 473/537/475 492/553/489 493/556/492
f 465/535/473 486/557/493 466/538/476
f 502/558/38 480/536/474 500/555/491
f 474/540/477 493/556/492 494/559/494
f 467/541/478 486/557/493 487/560/495
f 474/540/477 495/561/496 475/542/479
f 467/541/478 488/562/497 468/543/480
f 461/545/481 80/563/5 481/564/498
f 476/546/482 495/561/496 496/565/499
f 468/543/480 489/566/500 469/525/463
f 461/545/481 482/567/501 462/526/464
f 476/546/482 497/548/484 477/527/465
f 470/528/466 489/566/500 490/568/502
f 499/552/488 17/20/20 18/27/27
f 491/550/486 11/29/29 492/553/489
f 484/551/487 4/31/31 485/554/490
f 500/555/491 18/27/27 19/33/33
f 493/556/492 11/29/29 12/35/35
f 485/554/490 5/37/37 486/557/493
f 502/569/38 500/555/491 19/33/33
f 494/559/494 12/35/35 13/39/39
f 486/557/493 6/1/1 487/560/495
f 495/561/496 13/39/39 14/42/42
f 487/560/495 7/3/3 488/562/497
f 481/564/498 80/570/5 501/4/4
f 496/565/499 14/42/42 15/7/7
f 488/562/497 8/11/11 489/566/500
f 481/564/498 1/13/13 482/567/501
f 497/548/484 15/7/7 16/15/15
f 490/568/502 8/11/11 9/17/17
f 482/567/501 2/19/19 483/547/483
f 498/549/485 16/15/15 17/20/20
f 490/568/502 10/23/23 491/550/486
f 483/547/483 3/25/25 484/551/487
f 6/1/1 26/41/41 27/2/2
f 15/7/7 14/42/42 34/8/8
f 7/3/3 27/2/2 28/10/10
f 501/4/4 20/6/6 21/12/12
f 15/7/7 35/9/9 36/14/14
f 8/11/11 28/10/10 29/16/16
f 1/13/13 21/12/12 22/18/18
f 17/20/20 16/15/15 36/14/14
f 9/17/17 29/16/16 30/22/22
f 2/19/19 22/18/18 23/24/24
f 17/20/20 37/21/21 38/26/26
f 10/23/23 30/22/22 31/28/28
f 3/25/25 23/24/24 24/30/30
f 18/27/27 38/26/26 39/32/32
f 11/29/29 31/28/28 32/34/34
f 4/31/31 24/30/30 25/36/36
f 13/39/39 12/35/35 32/34/34
f 5/37/37 25/36/36 26/41/41
f 14/42/42 13/39/39 33/40/40
f 28/10/10 27/2/2 47/43/43
f 20/6/6 40/63/61 41/45/45
f 35/9/9 55/64/62 56/46/46
f 28/10/10 48/44/44 49/47/47
f 21/12/12 41/45/45 42/48/48
f 36/14/14 56/46/46 57/49/49
f 29/16/16 49/47/47 50/50/50
f 23/24/24 22/18/18 42/48/48
f 37/21/21 57/49/49 58/52/52
f 30/22/22 50/50/50 51/53/53
f 23/24/24 43/51/51 44/54/54
f 38/26/26 58/52/52 59/55/55
f 32/34/34 31/28/28 51/53/53
f 24/30/30 44/54/54 45/57/57
f 32/34/34 52/56/56 53/59/58
f 25/36/36 45/57/57 46/60/59
f 33/40/40 53/59/58 54/61/60
f 27/2/2 26/41/41 46/60/59
f 34/8/8 54/61/60 55/64/62
f 41/45/45 61/84/80 62/65/63
f 56/46/46 76/85/81 77/66/64
f 49/47/47 69/86/82 70/67/65
f 42/48/48 62/65/63 63/68/66
f 57/49/49 77/66/64 78/69/67
f 51/53/53 50/50/50 70/67/65
f 44/54/54 43/51/51 63/68/66
f 59/55/55 58/52/52 78/69/67
f 51/53/53 71/70/68 72/73/71
f 44/54/54 64/71/69 65/74/72
f 52/56/56 72/73/71 73/76/73
f 45/57/57 65/74/72 66/77/74
f 53/59/58 73/76/73 74/78/75
f 46/60/59 66/77/74 67/79/76
f 55/64/62 54/61/60 74/78/75
f 48/44/44 47/43/43 67/79/76
f 40/63/61 60/81/77 61/84/80
f 55/64/62 75/82/78 76/85/81
f 48/44/44 68/83/79 69/86/82
f 71/70/68 70/67/65 91/87/83
f 64/71/69 63/68/66 84/89/85
f 78/69/67 99/108/102 100/91/87
f 71/70/68 92/88/84 93/92/88
f 64/71/69 85/90/86 86/93/89
f 72/73/71 93/92/88 94/95/90
f 65/74/72 86/93/89 87/96/91
f 73/76/73 94/95/90 95/97/92
f 66/77/74 87/96/91 88/98/93
f 75/82/78 74/78/75 95/97/92
f 67/79/76 88/98/93 89/102/96
f 60/81/77 81/100/94 82/103/97
f 76/85/81 75/82/78 96/101/95
f 68/83/79 89/102/96 90/105/99
f 61/84/80 82/103/97 83/106/100
f 76/85/81 97/104/98 98/107/101
f 69/86/82 90/105/99 91/87/83
f 62/65/63 83/106/100 84/89/85
f 77/66/64 98/107/101 99/108/102
f 85/90/86 105/129/121 106/109/103
f 93/92/88 113/130/122 114/112/105
f 86/93/89 106/109/103 107/113/106
f 94/95/90 114/112/105 115/114/107
f 88/98/93 87/96/91 107/113/106
f 96/101/95 95/97/92 115/114/107
f 88/98/93 108/115/108 109/119/111
f 82/103/97 81/100/94 101/117/109
f 96/101/95 116/118/110 117/121/113
f 90/105/99 89/102/96 109/119/111
f 82/103/97 102/120/112 103/123/115
f 97/104/98 117/121/113 118/124/116
f 90/105/99 110/122/114 111/125/117
f 83/106/100 103/123/115 104/126/118
f 98/107/101 118/124/116 119/127/119
f 91/87/83 111/125/117 112/128/120
f 85/90/86 84/89/85 104/126/118
f 99/108/102 119/127/119 120/111/104
f 93/92/88 92/88/84 112/128/120
f 114/112/105 134/152/142 135/131/123
f 108/115/108 107/113/106 127/132/124
f 116/118/110 115/114/107 135/131/123
f 109/119/111 108/115/108 128/133/125
f 101/117/109 121/135/126 122/138/129
f 117/121/113 116/118/110 136/136/127
f 110/122/114 109/119/111 129/137/128
f 102/120/112 122/138/129 123/141/132
f 118/124/116 117/121/113 137/139/130
f 110/122/114 130/140/131 131/143/134
f 103/123/115 123/141/132 124/144/135
f 118/124/116 138/142/133 139/145/136
f 112/128/120 111/125/117 131/143/134
f 104/126/118 124/144/135 125/147/138
f 120/111/104 119/127/119 139/145/136
f 113/130/122 112/128/120 132/146/137
f 105/129/121 125/147/138 126/150/141
f 113/130/122 133/149/140 134/152/142
f 107/113/106 106/109/103 126/150/141
f 136/136/127 135/131/123 155/153/143
f 128/133/125 148/173/162 149/155/145
f 122/138/129 121/135/126 141/156/146
f 136/136/127 156/154/144 157/158/148
f 130/140/131 129/137/128 149/155/145
f 122/138/129 142/157/147 143/160/150
f 137/139/130 157/158/148 158/161/151
f 130/140/131 150/159/149 151/162/152
f 123/141/132 143/160/150 144/163/153
f 138/142/133 158/161/151 159/164/154
f 132/146/137 131/143/134 151/162/152
f 125/147/138 124/144/135 144/163/153
f 139/145/136 159/164/154 160/167/157
f 133/149/140 132/146/137 152/165/155
f 125/147/138 145/166/156 146/169/159
f 133/149/140 153/168/158 154/171/160
f 126/150/141 146/169/159 147/172/161
f 134/152/142 154/171/160 155/153/143
f 128/133/125 127/132/124 147/172/161
f 150/159/149 149/155/145 169/175/163
f 142/157/147 162/195/181 163/177/165
f 157/158/148 177/196/182 178/178/166
f 150/159/149 170/176/164 171/179/167
f 143/160/150 163/177/165 164/180/168
f 158/161/151 178/178/166 179/181/169
f 152/165/155 151/162/152 171/179/167
f 145/166/156 144/163/153 164/180/168
f 159/164/154 179/181/169 180/184/172
f 153/168/158 152/165/155 172/182/170
f 145/166/156 165/183/171 166/186/174
f 153/168/158 173/185/173 174/188/175
f 146/169/159 166/186/174 167/189/176
f 154/171/160 174/188/175 175/190/177
f 148/173/162 147/172/161 167/189/176
f 156/154/144 155/153/143 175/190/177
f 149/155/145 148/173/162 168/191/178
f 141/156/146 161/193/179 162/195/181
f 157/158/148 156/154/144 176/194/180
f 164/180/168 163/177/165 183/197/183
f 178/178/166 198/217/201 199/199/185
f 171/179/167 191/218/202 192/200/186
f 165/183/171 164/180/168 184/198/184
f 179/181/169 199/199/185 200/202/188
f 172/182/170 192/200/186 193/203/189
f 165/183/171 185/201/187 186/204/190
f 173/185/173 193/203/189 194/206/191
f 166/186/174 186/204/190 187/207/192
f 174/188/175 194/206/191 195/208/193
f 168/191/178 167/189/176 187/207/192
f 176/194/180 175/190/177 195/208/193
f 169/175/163 168/191/178 188/209/194
f 161/193/179 181/211/195 182/214/198
f 176/194/180 196/212/196 197/215/199
f 170/176/164 169/175/163 189/213/197
f 162/195/181 182/214/198 183/197/183
f 177/196/182 197/215/199 198/217/201
f 170/176/164 190/216/200 191/218/202
f 193/203/189 192/200/186 212/219/203
f 185/201/187 205/240/222 206/221/205
f 193/203/189 213/220/204 214/224/207
f 187/207/192 186/204/190 206/221/205
f 194/206/191 214/224/207 215/226/209
f 188/209/194 187/207/192 207/225/208
f 196/212/196 195/208/193 215/226/209
f 189/213/197 188/209/194 208/227/210
f 181/211/195 201/229/211 202/232/214
f 196/212/196 216/230/212 217/233/215
f 190/216/200 189/213/197 209/231/213
f 182/214/198 202/232/214 203/235/217
f 197/215/199 217/233/215 218/236/218
f 190/216/200 210/234/216 211/237/219
f 184/198/184 183/197/183 203/235/217
f 198/217/201 218/236/218 219/239/221
f 191/218/202 211/237/219 212/219/203
f 185/201/187 184/198/184 204/238/220
f 199/199/185 219/239/221 220/223/206
f 207/225/208 206/221/205 226/241/223
f 214/224/207 234/262/242 235/243/225
f 208/227/210 207/225/208 227/242/224
f 216/230/212 215/226/209 235/243/225
f 208/227/210 228/244/226 229/248/229
f 202/232/214 201/229/211 221/246/227
f 216/230/212 236/247/228 237/250/231
f 210/234/216 209/231/213 229/248/229
f 202/232/214 222/249/230 223/252/233
f 217/233/215 237/250/231 238/253/234
f 210/234/216 230/251/232 231/254/235
f 204/238/220 203/235/217 223/252/233
f 218/236/218 238/253/234 239/256/237
f 211/237/219 231/254/235 232/257/238
f 205/240/222 204/238/220 224/255/236
f 219/239/221 239/256/237 240/259/240
f 213/220/204 212/219/203 232/257/238
f 206/221/205 205/240/222 225/258/239
f 213/220/204 233/260/241 234/262/242
f 236/247/228 235/243/225 255/265/244
f 229/248/229 228/244/226 248/267/246
f 221/246/227 241/264/243 242/269/248
f 236/247/228 256/266/245 257/270/249
f 230/251/232 229/248/229 249/268/247
f 222/249/230 242/269/248 243/272/251
f 237/250/231 257/270/249 258/273/252
f 230/251/232 250/271/250 251/274/253
f 224/255/236 223/252/233 243/272/251
f 239/256/237 238/253/234 258/273/252
f 231/254/235 251/274/253 252/277/256
f 225/258/239 224/255/236 244/275/254
f 239/256/237 259/276/255 260/279/258
f 232/257/238 252/277/256 253/280/259
f 225/258/239 245/278/257 246/281/260
f 233/260/241 253/280/259 254/283/261
f 227/242/224 226/241/223 246/281/260
f 234/262/242 254/283/261 255/265/244
f 228/244/226 227/242/224 247/284/262
f 257/270/249 256/266/245 276/285/263
f 250/271/250 249/268/247 269/287/265
f 242/269/248 262/306/282 263/289/267
f 257/270/249 277/286/264 278/290/268
f 250/271/250 270/288/266 271/291/269
f 243/272/251 263/289/267 264/292/270
f 258/273/252 278/290/268 279/293/271
f 251/274/253 271/291/269 272/294/272
f 245/278/257 244/275/254 264/292/270
f 259/276/255 279/293/271 280/296/274
f 253/280/259 252/277/256 272/294/272
f 245/278/257 265/295/273 266/298/276
f 253/280/259 273/297/275 274/300/277
f 247/284/262 246/281/260 266/298/276
f 254/283/261 274/300/277 275/302/279
f 247/284/262 267/301/278 268/303/280
f 256/266/245 255/265/244 275/302/279
f 249/268/247 248/267/246 268/303/280
f 241/264/243 261/305/281 262/306/282
f 270/288/266 290/328/302 291/307/283
f 264/292/270 263/289/267 283/308/284
f 279/293/271 278/290/268 298/310/286
f 271/291/269 291/307/283 292/312/288
f 265/295/273 264/292/270 284/309/285
f 279/293/271 299/311/287 300/314/290
f 273/297/275 272/294/272 292/312/288
f 265/295/273 285/313/289 286/316/292
f 273/297/275 293/315/291 294/318/293
f 267/301/278 266/298/276 286/316/292
f 274/300/277 294/318/293 295/320/295
f 267/301/278 287/319/294 288/321/296
f 276/285/263 275/302/279 295/320/295
f 269/287/265 268/303/280 288/321/296
f 261/305/281 281/323/297 282/326/300
f 276/285/263 296/324/298 297/327/301
f 270/288/266 269/287/265 289/325/299
f 262/306/282 282/326/300 283/308/284
f 277/286/264 297/327/301 298/310/286
f 285/313/289 284/309/285 304/329/303
f 299/311/287 319/350/322 320/331/305
f 293/315/291 292/312/288 312/332/306
f 285/313/289 305/330/304 306/334/308
f 293/315/291 313/333/307 314/336/309
f 287/319/294 286/316/292 306/334/308
f 294/318/293 314/336/309 315/338/311
f 287/319/294 307/337/310 308/339/312
f 296/324/298 295/320/295 315/338/311
f 289/325/299 288/321/296 308/339/312
f 281/323/297 301/341/313 302/344/316
f 296/324/298 316/342/314 317/345/317
f 290/328/302 289/325/299 309/343/315
f 282/326/300 302/344/316 303/347/319
f 297/327/301 317/345/317 318/348/320
f 290/328/302 310/346/318 311/349/321
f 283/308/284 303/347/319 304/329/303
f 298/310/286 318/348/320 319/350/322
f 291/307/283 311/349/321 312/332/306
f 313/333/307 333/371/342 334/351/323
f 307/337/310 306/334/308 326/352/324
f 314/336/309 334/351/323 335/354/326
f 307/337/310 327/353/325 328/355/327
f 316/342/314 315/338/311 335/354/326
f 309/343/315 308/339/312 328/355/327
f 301/341/313 321/357/328 322/360/331
f 316/342/314 336/358/329 337/361/332
f 310/346/318 309/343/315 329/359/330
f 302/344/316 322/360/331 323/363/334
f 317/345/317 337/361/332 338/364/335
f 310/346/318 330/362/333 331/365/336
f 303/347/319 323/363/334 324/366/337
f 319/350/322 318/348/320 338/364/335
f 311/349/321 331/365/336 332/368/339
f 305/330/304 304/329/303 324/366/337
f 320/331/305 319/350/322 339/367/338
f 313/333/307 312/332/306 332/368/339
f 305/330/304 325/369/340 326/352/324
f 328/355/327 327/353/325 347/373/343
f 336/358/329 335/354/326 355/377/346
f 328/355/327 348/374/344 349/379/348
f 321/357/328 341/376/345 342/380/349
f 336/358/329 356/378/347 357/381/350
f 330/362/333 329/359/330 349/379/348
f 322/360/331 342/380/349 343/383/352
f 337/361/332 357/381/350 358/384/353
f 330/362/333 350/382/351 351/385/354
f 324/366/337 323/363/334 343/383/352
f 338/364/335 358/384/353 359/387/356
f 331/365/336 351/385/354 352/388/357
f 325/369/340 324/366/337 344/386/355
f 340/370/341 339/367/338 359/387/356
f 333/371/342 332/368/339 352/388/357
f 325/369/340 345/389/358 346/392/361
f 333/371/342 353/391/360 354/394/362
f 327/353/325 326/352/324 346/392/361
f 334/351/323 354/394/362 355/377/346
f 341/376/345 361/415/381 362/395/363
f 356/378/347 376/416/382 377/396/364
f 350/382/351 349/379/348 369/397/365
f 342/380/349 362/395/363 363/399/367
f 358/384/353 357/381/350 377/396/364
f 350/382/351 370/398/366 371/401/369
f 343/383/352 363/399/367 364/402/370
f 358/384/353 378/400/368 379/403/371
f 351/385/354 371/401/369 372/404/372
f 345/389/358 344/386/355 364/402/370
f 359/387/356 379/403/371 380/406/374
f 353/391/360 352/388/357 372/404/372
f 345/389/358 365/405/373 366/408/376
f 353/391/360 373/407/375 374/410/377
f 346/392/361 366/408/376 367/411/378
f 354/394/362 374/410/377 375/412/379
f 348/374/344 347/373/343 367/411/378
f 356/378/347 355/377/346 375/412/379
f 349/379/348 348/374/344 368/413/380
f 377/417/364 397/456/401 398/418/383
f 370/420/366 390/457/402 391/421/384
f 364/423/370 363/458/367 383/424/385
f 378/419/368 398/418/383 399/426/387
f 371/422/369 391/421/384 392/428/388
f 365/430/373 364/423/370 384/425/386
f 380/432/374 379/427/371 399/426/387
f 373/434/375 372/429/372 392/428/388
f 365/430/373 385/431/389 386/436/392
f 373/434/375 393/435/391 394/439/393
f 366/437/376 386/436/392 387/441/394
f 374/440/377 394/439/393 395/443/395
f 368/445/380 367/442/378 387/441/394
f 376/450/382 375/444/379 395/443/395
f 369/452/365 368/445/380 388/446/396
f 361/447/381 381/449/397 382/454/400
f 376/450/382 396/451/398 397/456/401
f 370/420/366 369/452/365 389/453/399
f 362/455/363 382/454/400 383/424/385
f 391/421/384 411/479/421 412/459/403
f 385/431/389 384/425/386 404/460/404
f 399/426/387 419/480/422 420/462/406
f 393/435/391 392/428/388 412/459/403
f 385/431/389 405/461/405 406/464/408
f 393/435/391 413/463/407 414/466/409
f 387/441/394 386/436/392 406/464/408
f 394/439/393 414/466/409 415/468/411
f 388/446/396 387/441/394 407/467/410
f 396/451/398 395/443/395 415/468/411
f 389/453/399 388/446/396 408/469/412
f 381/449/397 401/471/413 402/474/416
f 396/451/398 416/472/414 417/475/417
f 390/457/402 389/453/399 409/473/415
f 382/454/400 402/474/416 403/477/419
f 397/456/401 417/475/417 418/478/420
f 390/457/402 410/476/418 411/479/421
f 383/424/385 403/477/419 404/460/404
f 398/418/383 418/478/420 419/480/422
f 405/461/405 425/501/441 426/481/423
f 413/463/407 433/502/442 434/484/425
f 407/467/410 406/464/408 426/481/423
f 414/466/409 434/484/425 435/486/427
f 407/467/410 427/485/426 428/487/428
f 416/472/414 415/468/411 435/486/427
f 409/473/415 408/469/412 428/487/428
f 401/471/413 421/489/429 422/492/432
f 416/472/414 436/490/430 437/493/433
f 410/476/418 409/473/415 429/491/431
f 402/474/416 422/492/432 423/495/435
f 417/475/417 437/493/433 438/496/436
f 410/476/418 430/494/434 431/497/437
f 404/460/404 403/477/419 423/495/435
f 418/478/420 438/496/436 439/499/439
f 411/479/421 431/497/437 432/500/440
f 405/461/405 404/460/404 424/498/438
f 419/480/422 439/499/439 440/483/424
f 412/459/403 432/500/440 433/502/442
f 434/484/425 454/523/461 455/503/443
f 427/485/426 447/524/462 448/504/444
f 436/490/430 435/486/427 455/503/443
f 429/491/431 428/487/428 448/504/444
f 421/489/429 441/506/445 442/509/448
f 436/490/430 456/507/446 457/510/449
f 430/494/434 429/491/431 449/508/447
f 422/492/432 442/509/448 443/512/451
f 437/493/433 457/510/449 458/513/452
f 430/494/434 450/511/450 451/514/453
f 424/498/438 423/495/435 443/512/451
f 438/496/436 458/513/452 459/516/455
f 431/497/437 451/514/453 452/517/456
f 425/501/441 424/498/438 444/515/454
f 439/499/439 459/516/455 460/519/458
f 432/500/440 452/517/456 453/520/459
f 425/501/441 445/518/457 446/521/460
f 434/484/425 433/502/442 453/520/459
f 427/485/426 426/481/423 446/521/460
f 448/504/444 468/543/480 469/525/463
f 441/506/445 461/545/481 462/526/464
f 456/507/446 476/546/482 477/527/465
f 450/511/450 449/508/447 469/525/463
f 442/509/448 462/526/464 463/529/467
f 458/513/452 457/510/449 477/527/465
f 450/511/450 470/528/466 471/531/469
f 443/512/451 463/529/467 464/532/470
f 458/513/452 478/530/468 479/533/471
f 451/514/453 471/531/469 472/534/472
f 445/518/457 444/515/454 464/532/470
f 459/516/455 479/533/471 480/536/474
f 453/520/459 452/517/456 472/534/472
f 445/518/457 465/535/473 466/538/476
f 454/523/461 453/520/459 473/537/475
f 447/524/462 446/521/460 466/538/476
f 454/523/461 474/540/477 475/542/479
f 447/524/462 467/541/478 468/543/480
f 456/507/446 455/503/443 475/542/479
f 462/526/464 482/567/501 483/547/483
f 478/530/468 477/527/465 497/548/484
f 470/528/466 490/568/502 491/550/486
f 463/529/467 483/547/483 484/551/487
f 478/530/468 498/549/485 499/552/488
f 471/531/469 491/550/486 492/553/489
f 465/535/473 464/532/470 484/551/487
f 480/536/474 479/533/471 499/552/488
f 473/537/475 472/534/472 492/553/489
f 465/535/473 485/554/490 486/557/493
f 474/540/477 473/537/475 493/556/492
f 467/541/478 466/538/476 486/557/493
f 474/540/477 494/559/494 495/561/496
f 467/541/478 487/560/495 488/562/497
f 476/546/482 475/542/479 495/561/496
f 468/543/480 488/562/497 489/566/500
f 461/545/481 481/564/498 482/567/501
f 476/546/482 496/565/499 497/548/484
f 470/528/466 469/525/463 489/566/500
f 499/552/488 498/549/485 17/20/20
f 491/550/486 10/23/23 11/29/29
f 484/551/487 3/25/25 4/31/31
f 500/555/491 499/552/488 18/27/27
f 493/556/492 492/553/489 11/29/29
f 485/554/490 4/31/31 5/37/37
f 494/559/494 493/556/492 12/35/35
f 486/557/493 5/37/37 6/1/1
f 495/561/496 494/559/494 13/39/39
f 487/560/495 6/1/1 7/3/3
f 496/565/499 495/561/496 14/42/42
f 488/562/497 7/3/3 8/11/11
f 481/564/498 501/4/4 1/13/13
f 497/548/484 496/565/499 15/7/7
f 490/568/502 489/566/500 8/11/11
f 482/567/501 1/13/13 2/19/19
f 498/549/485 497/548/484 16/15/15
f 490/568/502 9/17/17 10/23/23
f 483/547/483 2/19/19 3/25/25
